ISO-10303-21;
HEADER;
FILE_DESCRIPTION((''),'2;1');
FILE_NAME('C-0215297-03-3','2007-10-09T',('workeradm'),(
'Tyco Electronics Corporation'),
'PRO/ENGINEER BY PARAMETRIC TECHNOLOGY CORPORATION, 2005450',
'PRO/ENGINEER BY PARAMETRIC TECHNOLOGY CORPORATION, 2005450','');
FILE_SCHEMA(('CONFIG_CONTROL_DESIGN', 'GEOMETRIC_VALIDATION_PROPERTIES_MIM'));
ENDSEC;
DATA;
#1=DRAUGHTING_PRE_DEFINED_COLOUR('black');
#2=COLOUR_RGB('',0.E0,0.E0,3.6E-1);
#3=COLOUR_RGB('',0.E0,0.E0,4.8E-1);
#4=DRAUGHTING_PRE_DEFINED_COLOUR('blue');
#5=COLOUR_RGB('',0.E0,3.6E-1,9.E-2);
#6=COLOUR_RGB('',0.E0,3.6E-1,2.7E-1);
#7=COLOUR_RGB('',0.E0,5.6E-1,6.4E-1);
#8=COLOUR_RGB('',0.E0,5.8E-1,8.E-1);
#9=COLOUR_RGB('',0.E0,7.1E-1,6.6E-1);
#10=COLOUR_RGB('',0.E0,7.13E-1,0.E0);
#11=COLOUR_RGB('',0.E0,9.5E-1,8.4E-1);
#12=DRAUGHTING_PRE_DEFINED_COLOUR('green');
#13=DRAUGHTING_PRE_DEFINED_COLOUR('cyan');
#14=COLOUR_RGB('',4.E-2,0.E0,1.6E-1);
#15=COLOUR_RGB('',9.E-2,0.E0,1.2E-1);
#16=COLOUR_RGB('',1.E-1,0.E0,2.5E-1);
#17=COLOUR_RGB('',1.6E-1,3.2E-2,0.E0);
#18=COLOUR_RGB('',1.6E-1,4.6E-1,6.5E-1);
#19=COLOUR_RGB('',1.6E-1,1.E0,1.6E-1);
#20=COLOUR_RGB('',2.E-1,3.2E-2,0.E0);
#21=COLOUR_RGB('',3.1E-1,3.1E-1,5.6E-1);
#22=COLOUR_RGB('',3.2E-1,1.5E-1,0.E0);
#23=COLOUR_RGB('',4.E-1,4.E-1,4.E-1);
#24=COLOUR_RGB('',4.2E-1,4.2E-1,1.E0);
#25=COLOUR_RGB('',4.4E-1,8.5E-1,1.E0);
#26=COLOUR_RGB('',4.9E-1,4.9E-1,0.E0);
#27=COLOUR_RGB('',4.9E-1,1.E0,0.E0);
#28=COLOUR_RGB('',5.E-1,0.E0,0.E0);
#29=COLOUR_RGB('',5.E-1,0.E0,2.3E-1);
#30=COLOUR_RGB('',5.E-1,5.E-1,5.E-1);
#31=COLOUR_RGB('',5.3E-1,0.E0,0.E0);
#32=COLOUR_RGB('',5.4E-1,0.E0,4.4E-1);
#33=COLOUR_RGB('',5.5E-1,3.E-1,0.E0);
#34=COLOUR_RGB('',5.6E-1,1.E-1,5.E-2);
#35=COLOUR_RGB('',5.8E-1,2.2E-1,1.E-2);
#36=COLOUR_RGB('',6.E-1,6.E-1,6.E-1);
#37=COLOUR_RGB('',6.2E-1,0.E0,5.5E-1);
#38=COLOUR_RGB('',6.4E-1,0.E0,2.5E-1);
#39=COLOUR_RGB('',6.4E-1,1.E-2,0.E0);
#40=COLOUR_RGB('',6.8E-1,7.5E-1,1.E0);
#41=COLOUR_RGB('',7.1E-1,3.1E-1,0.E0);
#42=COLOUR_RGB('',7.2E-1,7.2E-1,7.2E-1);
#43=COLOUR_RGB('',7.4E-1,1.E0,2.6E-1);
#44=COLOUR_RGB('',7.5E-1,3.E-2,0.E0);
#45=COLOUR_RGB('',7.6E-1,0.E0,4.7E-1);
#46=COLOUR_RGB('',8.1E-1,4.E-2,0.E0);
#47=COLOUR_RGB('',8.1E-1,6.1E-1,0.E0);
#48=COLOUR_RGB('',8.2E-1,4.E-2,6.6E-1);
#49=COLOUR_RGB('',8.5E-1,8.5E-1,8.5E-1);
#50=COLOUR_RGB('',8.784E-1,9.49E-1,1.E0);
#51=COLOUR_RGB('',9.E-1,1.E0,0.E0);
#52=COLOUR_RGB('',9.37E-1,7.85E-1,0.E0);
#53=COLOUR_RGB('',9.5E-1,2.2E-1,8.1E-1);
#54=COLOUR_RGB('',9.6E-1,3.7E-1,3.E-1);
#55=COLOUR_RGB('',9.6E-1,7.1E-1,3.75E-1);
#56=DRAUGHTING_PRE_DEFINED_COLOUR('red');
#57=COLOUR_RGB('',1.E0,0.E0,6.1E-1);
#58=COLOUR_RGB('',1.E0,4.E-2,0.E0);
#59=COLOUR_RGB('',1.E0,2.3E-1,0.E0);
#60=COLOUR_RGB('',1.E0,3.5E-1,5.2E-1);
#61=COLOUR_RGB('',1.E0,3.6E-1,0.E0);
#62=COLOUR_RGB('',1.E0,4.9E-1,3.7E-1);
#63=COLOUR_RGB('',1.E0,5.E-1,0.E0);
#64=COLOUR_RGB('',1.E0,5.6E-1,7.8E-1);
#65=COLOUR_RGB('',1.E0,6.4E-1,4.9E-1);
#66=COLOUR_RGB('',1.E0,6.7E-1,0.E0);
#67=COLOUR_RGB('',1.E0,7.6E-1,6.5E-1);
#68=COLOUR_RGB('',1.E0,8.6E-1,4.E-2);
#69=COLOUR_RGB('',1.E0,9.8E-1,7.2E-1);
#70=DRAUGHTING_PRE_DEFINED_COLOUR('yellow');
#71=DRAUGHTING_PRE_DEFINED_COLOUR('white');
#72=DIRECTION('',(0.E0,-1.E0,0.E0));
#73=VECTOR('',#72,2.52E0);
#74=CARTESIAN_POINT('',(-3.81E0,1.26E0,0.E0));
#75=LINE('',#74,#73);
#76=DIRECTION('',(-1.E0,0.E0,0.E0));
#77=VECTOR('',#76,7.62E0);
#78=CARTESIAN_POINT('',(3.81E0,1.26E0,0.E0));
#79=LINE('',#78,#77);
#80=DIRECTION('',(0.E0,1.E0,0.E0));
#81=VECTOR('',#80,2.52E0);
#82=CARTESIAN_POINT('',(3.81E0,-1.26E0,0.E0));
#83=LINE('',#82,#81);
#84=DIRECTION('',(1.E0,0.E0,0.E0));
#85=VECTOR('',#84,7.62E0);
#86=CARTESIAN_POINT('',(-3.81E0,-1.26E0,0.E0));
#87=LINE('',#86,#85);
#88=DIRECTION('',(0.E0,-1.E0,0.E0));
#89=VECTOR('',#88,1.11E0);
#90=CARTESIAN_POINT('',(1.61E0,6.05E-1,0.E0));
#91=LINE('',#90,#89);
#92=CARTESIAN_POINT('',(1.91E0,-5.05E-1,0.E0));
#93=DIRECTION('',(0.E0,0.E0,1.E0));
#94=DIRECTION('',(-1.E0,0.E0,0.E0));
#95=AXIS2_PLACEMENT_3D('',#92,#93,#94);
#97=DIRECTION('',(1.E0,0.E0,0.E0));
#98=VECTOR('',#97,1.26E0);
#99=CARTESIAN_POINT('',(1.91E0,-8.05E-1,0.E0));
#100=LINE('',#99,#98);
#101=CARTESIAN_POINT('',(3.17E0,-5.05E-1,0.E0));
#102=DIRECTION('',(0.E0,0.E0,1.E0));
#103=DIRECTION('',(0.E0,-1.E0,0.E0));
#104=AXIS2_PLACEMENT_3D('',#101,#102,#103);
#106=DIRECTION('',(0.E0,1.E0,0.E0));
#107=VECTOR('',#106,1.11E0);
#108=CARTESIAN_POINT('',(3.47E0,-5.05E-1,0.E0));
#109=LINE('',#108,#107);
#110=DIRECTION('',(-1.E0,0.E0,0.E0));
#111=VECTOR('',#110,1.86E0);
#112=CARTESIAN_POINT('',(3.47E0,6.05E-1,0.E0));
#113=LINE('',#112,#111);
#114=DIRECTION('',(0.E0,-1.E0,0.E0));
#115=VECTOR('',#114,1.11E0);
#116=CARTESIAN_POINT('',(-3.47E0,6.05E-1,0.E0));
#117=LINE('',#116,#115);
#118=CARTESIAN_POINT('',(-3.17E0,-5.05E-1,0.E0));
#119=DIRECTION('',(0.E0,0.E0,1.E0));
#120=DIRECTION('',(-1.E0,0.E0,0.E0));
#121=AXIS2_PLACEMENT_3D('',#118,#119,#120);
#123=DIRECTION('',(1.E0,0.E0,0.E0));
#124=VECTOR('',#123,1.26E0);
#125=CARTESIAN_POINT('',(-3.17E0,-8.05E-1,0.E0));
#126=LINE('',#125,#124);
#127=CARTESIAN_POINT('',(-1.91E0,-5.05E-1,0.E0));
#128=DIRECTION('',(0.E0,0.E0,1.E0));
#129=DIRECTION('',(0.E0,-1.E0,0.E0));
#130=AXIS2_PLACEMENT_3D('',#127,#128,#129);
#132=DIRECTION('',(0.E0,1.E0,0.E0));
#133=VECTOR('',#132,1.11E0);
#134=CARTESIAN_POINT('',(-1.61E0,-5.05E-1,0.E0));
#135=LINE('',#134,#133);
#136=DIRECTION('',(-1.E0,0.E0,0.E0));
#137=VECTOR('',#136,1.86E0);
#138=CARTESIAN_POINT('',(-1.61E0,6.05E-1,0.E0));
#139=LINE('',#138,#137);
#140=CARTESIAN_POINT('',(-6.3E-1,5.05E-1,0.E0));
#141=DIRECTION('',(0.E0,0.E0,1.E0));
#142=DIRECTION('',(0.E0,1.E0,0.E0));
#143=AXIS2_PLACEMENT_3D('',#140,#141,#142);
#145=DIRECTION('',(0.E0,-1.E0,0.E0));
#146=VECTOR('',#145,1.11E0);
#147=CARTESIAN_POINT('',(-9.3E-1,5.05E-1,0.E0));
#148=LINE('',#147,#146);
#149=DIRECTION('',(1.E0,0.E0,0.E0));
#150=VECTOR('',#149,1.86E0);
#151=CARTESIAN_POINT('',(-9.3E-1,-6.05E-1,0.E0));
#152=LINE('',#151,#150);
#153=DIRECTION('',(0.E0,1.E0,0.E0));
#154=VECTOR('',#153,1.11E0);
#155=CARTESIAN_POINT('',(9.3E-1,-6.05E-1,0.E0));
#156=LINE('',#155,#154);
#157=CARTESIAN_POINT('',(6.3E-1,5.05E-1,0.E0));
#158=DIRECTION('',(0.E0,0.E0,1.E0));
#159=DIRECTION('',(1.E0,0.E0,0.E0));
#160=AXIS2_PLACEMENT_3D('',#157,#158,#159);
#162=DIRECTION('',(-1.E0,0.E0,0.E0));
#163=VECTOR('',#162,1.26E0);
#164=CARTESIAN_POINT('',(6.3E-1,8.05E-1,0.E0));
#165=LINE('',#164,#163);
#166=DIRECTION('',(0.E0,3.420201433257E-1,-9.396926207859E-1));
#167=VECTOR('',#166,3.192533317428E-1);
#168=CARTESIAN_POINT('',(-3.81E0,4.508089297201E-1,-6.7E0));
#169=LINE('',#168,#167);
#170=DIRECTION('',(0.E0,1.E0,0.E0));
#171=VECTOR('',#170,7.E-1);
#172=CARTESIAN_POINT('',(-3.81E0,5.6E-1,-7.E0));
#173=LINE('',#172,#171);
#174=DIRECTION('',(0.E0,0.E0,1.E0));
#175=VECTOR('',#174,7.E0);
#176=CARTESIAN_POINT('',(-3.81E0,1.26E0,-7.E0));
#177=LINE('',#176,#175);
#178=DIRECTION('',(0.E0,0.E0,-1.E0));
#179=VECTOR('',#178,7.E0);
#180=CARTESIAN_POINT('',(-3.81E0,-1.26E0,0.E0));
#181=LINE('',#180,#179);
#182=DIRECTION('',(0.E0,1.E0,0.E0));
#183=VECTOR('',#182,7.E-1);
#184=CARTESIAN_POINT('',(-3.81E0,-1.26E0,-7.E0));
#185=LINE('',#184,#183);
#186=DIRECTION('',(0.E0,3.420201433257E-1,9.396926207859E-1));
#187=VECTOR('',#186,3.192533317428E-1);
#188=CARTESIAN_POINT('',(-3.81E0,-5.6E-1,-7.E0));
#189=LINE('',#188,#187);
#190=DIRECTION('',(0.E0,1.E0,0.E0));
#191=VECTOR('',#190,1.98E-1);
#192=CARTESIAN_POINT('',(2.19E0,-9.9E-2,-6.7E0));
#193=LINE('',#192,#191);
#194=DIRECTION('',(1.E0,0.E0,0.E0));
#195=VECTOR('',#194,7.E-1);
#196=CARTESIAN_POINT('',(2.19E0,9.9E-2,-6.7E0));
#197=LINE('',#196,#195);
#198=DIRECTION('',(0.E0,1.E0,0.E0));
#199=VECTOR('',#198,1.98E-1);
#200=CARTESIAN_POINT('',(2.89E0,-9.9E-2,-6.7E0));
#201=LINE('',#200,#199);
#202=DIRECTION('',(1.E0,0.E0,0.E0));
#203=VECTOR('',#202,7.E-1);
#204=CARTESIAN_POINT('',(2.19E0,-9.9E-2,-6.7E0));
#205=LINE('',#204,#203);
#206=DIRECTION('',(0.E0,1.E0,0.E0));
#207=VECTOR('',#206,1.98E-1);
#208=CARTESIAN_POINT('',(-2.89E0,-9.9E-2,-6.7E0));
#209=LINE('',#208,#207);
#210=DIRECTION('',(1.E0,0.E0,0.E0));
#211=VECTOR('',#210,7.E-1);
#212=CARTESIAN_POINT('',(-2.89E0,9.9E-2,-6.7E0));
#213=LINE('',#212,#211);
#214=DIRECTION('',(0.E0,1.E0,0.E0));
#215=VECTOR('',#214,1.98E-1);
#216=CARTESIAN_POINT('',(-2.19E0,-9.9E-2,-6.7E0));
#217=LINE('',#216,#215);
#218=DIRECTION('',(1.E0,0.E0,0.E0));
#219=VECTOR('',#218,7.E-1);
#220=CARTESIAN_POINT('',(-2.89E0,-9.9E-2,-6.7E0));
#221=LINE('',#220,#219);
#222=DIRECTION('',(0.E0,1.E0,0.E0));
#223=VECTOR('',#222,1.98E-1);
#224=CARTESIAN_POINT('',(-3.5E-1,-9.9E-2,-6.7E0));
#225=LINE('',#224,#223);
#226=DIRECTION('',(1.E0,0.E0,0.E0));
#227=VECTOR('',#226,7.E-1);
#228=CARTESIAN_POINT('',(-3.5E-1,9.9E-2,-6.7E0));
#229=LINE('',#228,#227);
#230=DIRECTION('',(0.E0,1.E0,0.E0));
#231=VECTOR('',#230,1.98E-1);
#232=CARTESIAN_POINT('',(3.5E-1,-9.9E-2,-6.7E0));
#233=LINE('',#232,#231);
#234=DIRECTION('',(1.E0,0.E0,0.E0));
#235=VECTOR('',#234,7.E-1);
#236=CARTESIAN_POINT('',(-3.5E-1,-9.9E-2,-6.7E0));
#237=LINE('',#236,#235);
#238=DIRECTION('',(0.E0,9.999999474566E-1,-3.241710352138E-4));
#239=VECTOR('',#238,1.503749018858E-1);
#240=CARTESIAN_POINT('',(1.71E0,-4.503748939846E-1,-6.699951252812E0));
#241=LINE('',#240,#239);
#242=DIRECTION('',(7.659742160926E-1,6.428712937139E-1,0.E0));
#243=VECTOR('',#242,2.333281972095E-1);
#244=CARTESIAN_POINT('',(1.71E0,-3.E-1,-6.7E0));
#245=LINE('',#244,#243);
#246=DIRECTION('',(1.E0,0.E0,0.E0));
#247=VECTOR('',#246,2.042553663254E-1);
#248=CARTESIAN_POINT('',(1.888723382950E0,-1.5E-1,-6.7E0));
#249=LINE('',#248,#247);
#250=DIRECTION('',(-7.659743427825E-1,-6.428711427642E-1,0.E0));
#251=VECTOR('',#250,2.333282519962E-1);
#252=CARTESIAN_POINT('',(2.092978749275E0,-1.5E-1,-6.7E0));
#253=LINE('',#252,#251);
#254=DIRECTION('',(1.E0,0.E0,0.E0));
#255=VECTOR('',#254,9.957447052002E-1);
#256=CARTESIAN_POINT('',(1.914255294800E0,-3.E-1,-6.7E0));
#257=LINE('',#256,#255);
#258=DIRECTION('',(0.E0,-9.999999474566E-1,3.241710352079E-4));
#259=VECTOR('',#258,1.503749018858E-1);
#260=CARTESIAN_POINT('',(2.91E0,-3.E-1,-6.7E0));
#261=LINE('',#260,#259);
#262=DIRECTION('',(9.999998822449E-1,-4.822618716139E-4,-5.416353541486E-5));
#263=VECTOR('',#262,9.000001059796E-1);
#264=CARTESIAN_POINT('',(2.91E0,-4.503748939846E-1,-6.699951252812E0));
#265=LINE('',#264,#263);
#266=DIRECTION('',(0.E0,1.E0,0.E0));
#267=VECTOR('',#266,9.016178594403E-1);
#268=CARTESIAN_POINT('',(3.81E0,-4.508089297201E-1,-6.7E0));
#269=LINE('',#268,#267);
#270=DIRECTION('',(1.E0,0.E0,0.E0));
#271=VECTOR('',#270,7.62E0);
#272=CARTESIAN_POINT('',(-3.81E0,4.508089297201E-1,-6.7E0));
#273=LINE('',#272,#271);
#274=DIRECTION('',(0.E0,-1.E0,0.E0));
#275=VECTOR('',#274,9.016178594403E-1);
#276=CARTESIAN_POINT('',(-3.81E0,4.508089297201E-1,-6.7E0));
#277=LINE('',#276,#275);
#278=DIRECTION('',(9.999999968697E-1,7.862966199342E-5,8.831012221520E-6));
#279=VECTOR('',#278,5.520000017279E0);
#280=CARTESIAN_POINT('',(-3.81E0,-4.508089297201E-1,-6.7E0));
#281=LINE('',#280,#279);
#282=DIRECTION('',(0.E0,0.E0,-1.E0));
#283=VECTOR('',#282,9.675559615893E-1);
#284=CARTESIAN_POINT('',(2.19E0,-9.9E-2,-6.7E0));
#285=LINE('',#284,#283);
#286=CARTESIAN_POINT('',(2.19E0,-2.397E0,-8.883777980795E0));
#287=DIRECTION('',(-1.E0,0.E0,0.E0));
#288=DIRECTION('',(0.E0,8.838461538462E-1,4.677776996944E-1));
#289=AXIS2_PLACEMENT_3D('',#286,#287,#288);
#291=DIRECTION('',(0.E0,1.E0,0.E0));
#292=VECTOR('',#291,1.98E-1);
#293=CARTESIAN_POINT('',(2.19E0,-9.9E-2,-1.01E1));
#294=LINE('',#293,#292);
#295=CARTESIAN_POINT('',(2.19E0,-2.199E0,-8.883777980795E0));
#296=DIRECTION('',(1.E0,0.E0,0.E0));
#297=DIRECTION('',(0.E0,8.838461538462E-1,-4.677776996944E-1));
#298=AXIS2_PLACEMENT_3D('',#295,#296,#297);
#300=DIRECTION('',(0.E0,0.E0,1.E0));
#301=VECTOR('',#300,9.675559615893E-1);
#302=CARTESIAN_POINT('',(2.19E0,9.9E-2,-7.667555961589E0));
#303=LINE('',#302,#301);
#304=DIRECTION('',(0.E0,0.E0,1.E0));
#305=VECTOR('',#304,9.675559615893E-1);
#306=CARTESIAN_POINT('',(2.89E0,9.9E-2,-7.667555961589E0));
#307=LINE('',#306,#305);
#308=CARTESIAN_POINT('',(2.89E0,-2.199E0,-8.883777980795E0));
#309=DIRECTION('',(1.E0,0.E0,0.E0));
#310=DIRECTION('',(0.E0,8.838461538462E-1,-4.677776996944E-1));
#311=AXIS2_PLACEMENT_3D('',#308,#309,#310);
#313=DIRECTION('',(0.E0,1.E0,0.E0));
#314=VECTOR('',#313,1.98E-1);
#315=CARTESIAN_POINT('',(2.89E0,-9.9E-2,-1.01E1));
#316=LINE('',#315,#314);
#317=CARTESIAN_POINT('',(2.89E0,-2.397E0,-8.883777980795E0));
#318=DIRECTION('',(-1.E0,0.E0,0.E0));
#319=DIRECTION('',(0.E0,8.838461538462E-1,4.677776996944E-1));
#320=AXIS2_PLACEMENT_3D('',#317,#318,#319);
#322=DIRECTION('',(0.E0,0.E0,-1.E0));
#323=VECTOR('',#322,9.675559615893E-1);
#324=CARTESIAN_POINT('',(2.89E0,-9.9E-2,-6.7E0));
#325=LINE('',#324,#323);
#326=DIRECTION('',(1.E0,0.E0,0.E0));
#327=VECTOR('',#326,7.E-1);
#328=CARTESIAN_POINT('',(2.19E0,9.9E-2,-7.667555961589E0));
#329=LINE('',#328,#327);
#330=DIRECTION('',(1.E0,0.E0,0.E0));
#331=VECTOR('',#330,7.E-1);
#332=CARTESIAN_POINT('',(2.19E0,9.9E-2,-1.01E1));
#333=LINE('',#332,#331);
#334=DIRECTION('',(1.E0,0.E0,0.E0));
#335=VECTOR('',#334,7.E-1);
#336=CARTESIAN_POINT('',(2.19E0,-9.9E-2,-1.01E1));
#337=LINE('',#336,#335);
#338=DIRECTION('',(1.E0,0.E0,0.E0));
#339=VECTOR('',#338,7.E-1);
#340=CARTESIAN_POINT('',(2.19E0,-9.9E-2,-7.667555961589E0));
#341=LINE('',#340,#339);
#342=DIRECTION('',(0.E0,0.E0,-1.E0));
#343=VECTOR('',#342,9.675559615893E-1);
#344=CARTESIAN_POINT('',(-2.89E0,-9.9E-2,-6.7E0));
#345=LINE('',#344,#343);
#346=CARTESIAN_POINT('',(-2.89E0,-2.397E0,-8.883777980795E0));
#347=DIRECTION('',(-1.E0,0.E0,0.E0));
#348=DIRECTION('',(0.E0,8.838461538462E-1,4.677776996944E-1));
#349=AXIS2_PLACEMENT_3D('',#346,#347,#348);
#351=DIRECTION('',(0.E0,1.E0,0.E0));
#352=VECTOR('',#351,1.98E-1);
#353=CARTESIAN_POINT('',(-2.89E0,-9.9E-2,-1.01E1));
#354=LINE('',#353,#352);
#355=CARTESIAN_POINT('',(-2.89E0,-2.199E0,-8.883777980795E0));
#356=DIRECTION('',(1.E0,0.E0,0.E0));
#357=DIRECTION('',(0.E0,8.838461538462E-1,-4.677776996944E-1));
#358=AXIS2_PLACEMENT_3D('',#355,#356,#357);
#360=DIRECTION('',(0.E0,0.E0,1.E0));
#361=VECTOR('',#360,9.675559615893E-1);
#362=CARTESIAN_POINT('',(-2.89E0,9.9E-2,-7.667555961589E0));
#363=LINE('',#362,#361);
#364=DIRECTION('',(0.E0,0.E0,1.E0));
#365=VECTOR('',#364,9.675559615893E-1);
#366=CARTESIAN_POINT('',(-2.19E0,9.9E-2,-7.667555961589E0));
#367=LINE('',#366,#365);
#368=CARTESIAN_POINT('',(-2.19E0,-2.199E0,-8.883777980795E0));
#369=DIRECTION('',(1.E0,0.E0,0.E0));
#370=DIRECTION('',(0.E0,8.838461538462E-1,-4.677776996944E-1));
#371=AXIS2_PLACEMENT_3D('',#368,#369,#370);
#373=DIRECTION('',(0.E0,1.E0,0.E0));
#374=VECTOR('',#373,1.98E-1);
#375=CARTESIAN_POINT('',(-2.19E0,-9.9E-2,-1.01E1));
#376=LINE('',#375,#374);
#377=CARTESIAN_POINT('',(-2.19E0,-2.397E0,-8.883777980795E0));
#378=DIRECTION('',(-1.E0,0.E0,0.E0));
#379=DIRECTION('',(0.E0,8.838461538462E-1,4.677776996944E-1));
#380=AXIS2_PLACEMENT_3D('',#377,#378,#379);
#382=DIRECTION('',(0.E0,0.E0,-1.E0));
#383=VECTOR('',#382,9.675559615893E-1);
#384=CARTESIAN_POINT('',(-2.19E0,-9.9E-2,-6.7E0));
#385=LINE('',#384,#383);
#386=DIRECTION('',(1.E0,0.E0,0.E0));
#387=VECTOR('',#386,7.E-1);
#388=CARTESIAN_POINT('',(-2.89E0,9.9E-2,-7.667555961589E0));
#389=LINE('',#388,#387);
#390=DIRECTION('',(1.E0,0.E0,0.E0));
#391=VECTOR('',#390,7.E-1);
#392=CARTESIAN_POINT('',(-2.89E0,9.9E-2,-1.01E1));
#393=LINE('',#392,#391);
#394=DIRECTION('',(1.E0,0.E0,0.E0));
#395=VECTOR('',#394,7.E-1);
#396=CARTESIAN_POINT('',(-2.89E0,-9.9E-2,-1.01E1));
#397=LINE('',#396,#395);
#398=DIRECTION('',(1.E0,0.E0,0.E0));
#399=VECTOR('',#398,7.E-1);
#400=CARTESIAN_POINT('',(-2.89E0,-9.9E-2,-7.667555961589E0));
#401=LINE('',#400,#399);
#402=DIRECTION('',(0.E0,0.E0,-1.E0));
#403=VECTOR('',#402,9.675559615892E-1);
#404=CARTESIAN_POINT('',(-3.5E-1,-9.9E-2,-6.7E0));
#405=LINE('',#404,#403);
#406=CARTESIAN_POINT('',(-3.5E-1,2.199E0,-8.883777980795E0));
#407=DIRECTION('',(1.E0,0.E0,0.E0));
#408=DIRECTION('',(0.E0,-8.838461538462E-1,4.677776996944E-1));
#409=AXIS2_PLACEMENT_3D('',#406,#407,#408);
#411=DIRECTION('',(0.E0,1.E0,0.E0));
#412=VECTOR('',#411,1.98E-1);
#413=CARTESIAN_POINT('',(-3.5E-1,-9.9E-2,-1.01E1));
#414=LINE('',#413,#412);
#415=CARTESIAN_POINT('',(-3.5E-1,2.397E0,-8.883777980795E0));
#416=DIRECTION('',(-1.E0,0.E0,0.E0));
#417=DIRECTION('',(0.E0,-8.838461538462E-1,-4.677776996944E-1));
#418=AXIS2_PLACEMENT_3D('',#415,#416,#417);
#420=DIRECTION('',(0.E0,0.E0,1.E0));
#421=VECTOR('',#420,9.675559615892E-1);
#422=CARTESIAN_POINT('',(-3.5E-1,9.9E-2,-7.667555961589E0));
#423=LINE('',#422,#421);
#424=DIRECTION('',(0.E0,0.E0,1.E0));
#425=VECTOR('',#424,9.675559615892E-1);
#426=CARTESIAN_POINT('',(3.5E-1,9.9E-2,-7.667555961589E0));
#427=LINE('',#426,#425);
#428=CARTESIAN_POINT('',(3.5E-1,2.397E0,-8.883777980795E0));
#429=DIRECTION('',(-1.E0,0.E0,0.E0));
#430=DIRECTION('',(0.E0,-8.838461538462E-1,-4.677776996944E-1));
#431=AXIS2_PLACEMENT_3D('',#428,#429,#430);
#433=DIRECTION('',(0.E0,1.E0,0.E0));
#434=VECTOR('',#433,1.98E-1);
#435=CARTESIAN_POINT('',(3.5E-1,-9.9E-2,-1.01E1));
#436=LINE('',#435,#434);
#437=CARTESIAN_POINT('',(3.5E-1,2.199E0,-8.883777980795E0));
#438=DIRECTION('',(1.E0,0.E0,0.E0));
#439=DIRECTION('',(0.E0,-8.838461538462E-1,4.677776996944E-1));
#440=AXIS2_PLACEMENT_3D('',#437,#438,#439);
#442=DIRECTION('',(0.E0,0.E0,-1.E0));
#443=VECTOR('',#442,9.675559615892E-1);
#444=CARTESIAN_POINT('',(3.5E-1,-9.9E-2,-6.7E0));
#445=LINE('',#444,#443);
#446=DIRECTION('',(1.E0,0.E0,0.E0));
#447=VECTOR('',#446,7.E-1);
#448=CARTESIAN_POINT('',(-3.5E-1,9.9E-2,-7.667555961589E0));
#449=LINE('',#448,#447);
#450=DIRECTION('',(1.E0,0.E0,0.E0));
#451=VECTOR('',#450,7.E-1);
#452=CARTESIAN_POINT('',(-3.5E-1,9.9E-2,-1.01E1));
#453=LINE('',#452,#451);
#454=DIRECTION('',(1.E0,0.E0,0.E0));
#455=VECTOR('',#454,7.E-1);
#456=CARTESIAN_POINT('',(-3.5E-1,-9.9E-2,-1.01E1));
#457=LINE('',#456,#455);
#458=DIRECTION('',(1.E0,0.E0,0.E0));
#459=VECTOR('',#458,7.E-1);
#460=CARTESIAN_POINT('',(-3.5E-1,-9.9E-2,-7.667555961589E0));
#461=LINE('',#460,#459);
#462=DIRECTION('',(0.E0,3.750741856685E-3,9.999929659430E-1));
#463=VECTOR('',#462,9.995195588014E-2);
#464=CARTESIAN_POINT('',(1.71E0,-4.503748939846E-1,-6.699951252812E0));
#465=LINE('',#464,#463);
#466=DIRECTION('',(0.E0,3.750741856685E-3,9.999929659430E-1));
#467=VECTOR('',#466,9.995195588014E-2);
#468=CARTESIAN_POINT('',(2.91E0,-4.503748939846E-1,-6.699951252812E0));
#469=LINE('',#468,#467);
#470=DIRECTION('',(-1.E0,0.E0,0.E0));
#471=VECTOR('',#470,1.2E0);
#472=CARTESIAN_POINT('',(2.91E0,-4.503748939846E-1,-6.699951252812E0));
#473=LINE('',#472,#471);
#474=DIRECTION('',(-1.E0,0.E0,0.E0));
#475=VECTOR('',#474,7.62E0);
#476=CARTESIAN_POINT('',(3.81E0,-5.6E-1,-7.E0));
#477=LINE('',#476,#475);
#478=DIRECTION('',(-1.E0,0.E0,0.E0));
#479=VECTOR('',#478,7.62E0);
#480=CARTESIAN_POINT('',(3.81E0,-1.26E0,-7.E0));
#481=LINE('',#480,#479);
#482=DIRECTION('',(0.E0,1.E0,0.E0));
#483=VECTOR('',#482,7.E-1);
#484=CARTESIAN_POINT('',(3.81E0,5.6E-1,-7.E0));
#485=LINE('',#484,#483);
#486=DIRECTION('',(0.E0,3.420201433257E-1,-9.396926207859E-1));
#487=VECTOR('',#486,3.192533317428E-1);
#488=CARTESIAN_POINT('',(3.81E0,4.508089297201E-1,-6.7E0));
#489=LINE('',#488,#487);
#490=DIRECTION('',(0.E0,3.420201433257E-1,9.396926207859E-1));
#491=VECTOR('',#490,3.192533317428E-1);
#492=CARTESIAN_POINT('',(3.81E0,-5.6E-1,-7.E0));
#493=LINE('',#492,#491);
#494=DIRECTION('',(0.E0,1.E0,0.E0));
#495=VECTOR('',#494,7.E-1);
#496=CARTESIAN_POINT('',(3.81E0,-1.26E0,-7.E0));
#497=LINE('',#496,#495);
#498=DIRECTION('',(-1.E0,0.E0,0.E0));
#499=VECTOR('',#498,7.62E0);
#500=CARTESIAN_POINT('',(3.81E0,1.26E0,-7.E0));
#501=LINE('',#500,#499);
#502=DIRECTION('',(0.E0,0.E0,1.E0));
#503=VECTOR('',#502,7.E0);
#504=CARTESIAN_POINT('',(3.81E0,1.26E0,-7.E0));
#505=LINE('',#504,#503);
#506=DIRECTION('',(-1.E0,0.E0,0.E0));
#507=VECTOR('',#506,7.62E0);
#508=CARTESIAN_POINT('',(3.81E0,5.6E-1,-7.E0));
#509=LINE('',#508,#507);
#510=DIRECTION('',(0.E0,0.E0,-1.E0));
#511=VECTOR('',#510,7.E0);
#512=CARTESIAN_POINT('',(3.81E0,-1.26E0,0.E0));
#513=LINE('',#512,#511);
#514=DIRECTION('',(0.E0,0.E0,1.E0));
#515=VECTOR('',#514,1.E-1);
#516=CARTESIAN_POINT('',(2.91E0,-3.E-1,-6.7E0));
#517=LINE('',#516,#515);
#518=DIRECTION('',(0.E0,0.E0,1.E0));
#519=VECTOR('',#518,1.E-1);
#520=CARTESIAN_POINT('',(1.914255294800E0,-3.E-1,-6.7E0));
#521=LINE('',#520,#519);
#522=DIRECTION('',(0.E0,0.E0,1.E0));
#523=VECTOR('',#522,1.E-1);
#524=CARTESIAN_POINT('',(2.092978749275E0,-1.5E-1,-6.7E0));
#525=LINE('',#524,#523);
#526=DIRECTION('',(0.E0,0.E0,1.E0));
#527=VECTOR('',#526,1.E-1);
#528=CARTESIAN_POINT('',(1.888723382950E0,-1.5E-1,-6.7E0));
#529=LINE('',#528,#527);
#530=DIRECTION('',(0.E0,0.E0,1.E0));
#531=VECTOR('',#530,1.E-1);
#532=CARTESIAN_POINT('',(1.71E0,-3.E-1,-6.7E0));
#533=LINE('',#532,#531);
#534=DIRECTION('',(-1.E0,0.E0,0.E0));
#535=VECTOR('',#534,1.2E0);
#536=CARTESIAN_POINT('',(2.91E0,-4.5E-1,-6.6E0));
#537=LINE('',#536,#535);
#538=DIRECTION('',(0.E0,-1.E0,0.E0));
#539=VECTOR('',#538,1.5E-1);
#540=CARTESIAN_POINT('',(2.91E0,-3.E-1,-6.6E0));
#541=LINE('',#540,#539);
#542=DIRECTION('',(1.E0,0.E0,0.E0));
#543=VECTOR('',#542,9.957447052002E-1);
#544=CARTESIAN_POINT('',(1.914255294800E0,-3.E-1,-6.6E0));
#545=LINE('',#544,#543);
#546=DIRECTION('',(-7.659743427825E-1,-6.428711427642E-1,0.E0));
#547=VECTOR('',#546,2.333282519962E-1);
#548=CARTESIAN_POINT('',(2.092978749275E0,-1.5E-1,-6.6E0));
#549=LINE('',#548,#547);
#550=DIRECTION('',(1.E0,0.E0,0.E0));
#551=VECTOR('',#550,2.042553663254E-1);
#552=CARTESIAN_POINT('',(1.888723382950E0,-1.5E-1,-6.6E0));
#553=LINE('',#552,#551);
#554=DIRECTION('',(7.659742160926E-1,6.428712937139E-1,0.E0));
#555=VECTOR('',#554,2.333281972095E-1);
#556=CARTESIAN_POINT('',(1.71E0,-3.E-1,-6.6E0));
#557=LINE('',#556,#555);
#558=DIRECTION('',(0.E0,1.E0,0.E0));
#559=VECTOR('',#558,1.5E-1);
#560=CARTESIAN_POINT('',(1.71E0,-4.5E-1,-6.6E0));
#561=LINE('',#560,#559);
#562=DIRECTION('',(0.E0,0.E0,-1.E0));
#563=VECTOR('',#562,1.E0);
#564=CARTESIAN_POINT('',(1.61E0,6.05E-1,0.E0));
#565=LINE('',#564,#563);
#566=DIRECTION('',(0.E0,0.E0,-1.E0));
#567=VECTOR('',#566,1.E0);
#568=CARTESIAN_POINT('',(3.47E0,6.05E-1,0.E0));
#569=LINE('',#568,#567);
#570=DIRECTION('',(0.E0,0.E0,-1.E0));
#571=VECTOR('',#570,1.E0);
#572=CARTESIAN_POINT('',(3.47E0,-5.05E-1,0.E0));
#573=LINE('',#572,#571);
#574=DIRECTION('',(0.E0,0.E0,-1.E0));
#575=VECTOR('',#574,1.E0);
#576=CARTESIAN_POINT('',(3.17E0,-8.05E-1,0.E0));
#577=LINE('',#576,#575);
#578=DIRECTION('',(0.E0,0.E0,-1.E0));
#579=VECTOR('',#578,1.E0);
#580=CARTESIAN_POINT('',(1.91E0,-8.05E-1,0.E0));
#581=LINE('',#580,#579);
#582=DIRECTION('',(0.E0,0.E0,-1.E0));
#583=VECTOR('',#582,1.E0);
#584=CARTESIAN_POINT('',(1.61E0,-5.05E-1,0.E0));
#585=LINE('',#584,#583);
#586=DIRECTION('',(0.E0,1.E0,0.E0));
#587=VECTOR('',#586,1.11E0);
#588=CARTESIAN_POINT('',(1.61E0,-5.05E-1,-1.E0));
#589=LINE('',#588,#587);
#590=DIRECTION('',(1.E0,0.E0,0.E0));
#591=VECTOR('',#590,1.86E0);
#592=CARTESIAN_POINT('',(1.61E0,6.05E-1,-1.E0));
#593=LINE('',#592,#591);
#594=DIRECTION('',(0.E0,-1.E0,0.E0));
#595=VECTOR('',#594,1.11E0);
#596=CARTESIAN_POINT('',(3.47E0,6.05E-1,-1.E0));
#597=LINE('',#596,#595);
#598=CARTESIAN_POINT('',(3.17E0,-5.05E-1,-1.E0));
#599=DIRECTION('',(0.E0,0.E0,-1.E0));
#600=DIRECTION('',(1.E0,1.073215590471E-14,0.E0));
#601=AXIS2_PLACEMENT_3D('',#598,#599,#600);
#603=DIRECTION('',(-1.E0,0.E0,0.E0));
#604=VECTOR('',#603,1.26E0);
#605=CARTESIAN_POINT('',(3.17E0,-8.05E-1,-1.E0));
#606=LINE('',#605,#604);
#607=CARTESIAN_POINT('',(1.91E0,-5.05E-1,-1.E0));
#608=DIRECTION('',(0.E0,0.E0,-1.E0));
#609=DIRECTION('',(0.E0,-1.E0,0.E0));
#610=AXIS2_PLACEMENT_3D('',#607,#608,#609);
#612=DIRECTION('',(0.E0,0.E0,-1.E0));
#613=VECTOR('',#612,1.E0);
#614=CARTESIAN_POINT('',(-3.47E0,6.05E-1,0.E0));
#615=LINE('',#614,#613);
#616=DIRECTION('',(0.E0,0.E0,-1.E0));
#617=VECTOR('',#616,1.E0);
#618=CARTESIAN_POINT('',(-1.61E0,6.05E-1,0.E0));
#619=LINE('',#618,#617);
#620=DIRECTION('',(0.E0,0.E0,-1.E0));
#621=VECTOR('',#620,1.E0);
#622=CARTESIAN_POINT('',(-1.61E0,-5.05E-1,0.E0));
#623=LINE('',#622,#621);
#624=DIRECTION('',(0.E0,0.E0,-1.E0));
#625=VECTOR('',#624,1.E0);
#626=CARTESIAN_POINT('',(-1.91E0,-8.05E-1,0.E0));
#627=LINE('',#626,#625);
#628=DIRECTION('',(0.E0,0.E0,-1.E0));
#629=VECTOR('',#628,1.E0);
#630=CARTESIAN_POINT('',(-3.17E0,-8.05E-1,0.E0));
#631=LINE('',#630,#629);
#632=DIRECTION('',(0.E0,0.E0,-1.E0));
#633=VECTOR('',#632,1.E0);
#634=CARTESIAN_POINT('',(-3.47E0,-5.05E-1,0.E0));
#635=LINE('',#634,#633);
#636=DIRECTION('',(0.E0,-1.E0,0.E0));
#637=VECTOR('',#636,1.11E0);
#638=CARTESIAN_POINT('',(-3.47E0,6.05E-1,-1.E0));
#639=LINE('',#638,#637);
#640=DIRECTION('',(-1.E0,0.E0,0.E0));
#641=VECTOR('',#640,1.86E0);
#642=CARTESIAN_POINT('',(-1.61E0,6.05E-1,-1.E0));
#643=LINE('',#642,#641);
#644=DIRECTION('',(0.E0,1.E0,0.E0));
#645=VECTOR('',#644,1.11E0);
#646=CARTESIAN_POINT('',(-1.61E0,-5.05E-1,-1.E0));
#647=LINE('',#646,#645);
#648=CARTESIAN_POINT('',(-1.91E0,-5.05E-1,-1.E0));
#649=DIRECTION('',(0.E0,0.E0,1.E0));
#650=DIRECTION('',(0.E0,-1.E0,0.E0));
#651=AXIS2_PLACEMENT_3D('',#648,#649,#650);
#653=DIRECTION('',(1.E0,0.E0,0.E0));
#654=VECTOR('',#653,1.26E0);
#655=CARTESIAN_POINT('',(-3.17E0,-8.05E-1,-1.E0));
#656=LINE('',#655,#654);
#657=CARTESIAN_POINT('',(-3.17E0,-5.05E-1,-1.E0));
#658=DIRECTION('',(0.E0,0.E0,1.E0));
#659=DIRECTION('',(-1.E0,0.E0,0.E0));
#660=AXIS2_PLACEMENT_3D('',#657,#658,#659);
#662=DIRECTION('',(0.E0,0.E0,-1.E0));
#663=VECTOR('',#662,1.E0);
#664=CARTESIAN_POINT('',(-6.3E-1,8.05E-1,0.E0));
#665=LINE('',#664,#663);
#666=DIRECTION('',(0.E0,0.E0,-1.E0));
#667=VECTOR('',#666,1.E0);
#668=CARTESIAN_POINT('',(6.3E-1,8.05E-1,0.E0));
#669=LINE('',#668,#667);
#670=DIRECTION('',(0.E0,0.E0,-1.E0));
#671=VECTOR('',#670,1.E0);
#672=CARTESIAN_POINT('',(9.3E-1,5.05E-1,0.E0));
#673=LINE('',#672,#671);
#674=DIRECTION('',(0.E0,0.E0,-1.E0));
#675=VECTOR('',#674,1.E0);
#676=CARTESIAN_POINT('',(9.3E-1,-6.05E-1,0.E0));
#677=LINE('',#676,#675);
#678=DIRECTION('',(0.E0,0.E0,-1.E0));
#679=VECTOR('',#678,1.E0);
#680=CARTESIAN_POINT('',(-9.3E-1,-6.05E-1,0.E0));
#681=LINE('',#680,#679);
#682=DIRECTION('',(0.E0,0.E0,-1.E0));
#683=VECTOR('',#682,1.E0);
#684=CARTESIAN_POINT('',(-9.3E-1,5.05E-1,0.E0));
#685=LINE('',#684,#683);
#686=CARTESIAN_POINT('',(-6.3E-1,5.05E-1,-1.E0));
#687=DIRECTION('',(0.E0,0.E0,1.E0));
#688=DIRECTION('',(0.E0,1.E0,0.E0));
#689=AXIS2_PLACEMENT_3D('',#686,#687,#688);
#691=DIRECTION('',(-1.E0,0.E0,0.E0));
#692=VECTOR('',#691,1.26E0);
#693=CARTESIAN_POINT('',(6.3E-1,8.05E-1,-1.E0));
#694=LINE('',#693,#692);
#695=CARTESIAN_POINT('',(6.3E-1,5.05E-1,-1.E0));
#696=DIRECTION('',(0.E0,0.E0,1.E0));
#697=DIRECTION('',(1.E0,0.E0,0.E0));
#698=AXIS2_PLACEMENT_3D('',#695,#696,#697);
#700=DIRECTION('',(0.E0,1.E0,0.E0));
#701=VECTOR('',#700,1.11E0);
#702=CARTESIAN_POINT('',(9.3E-1,-6.05E-1,-1.E0));
#703=LINE('',#702,#701);
#704=DIRECTION('',(1.E0,0.E0,0.E0));
#705=VECTOR('',#704,1.86E0);
#706=CARTESIAN_POINT('',(-9.3E-1,-6.05E-1,-1.E0));
#707=LINE('',#706,#705);
#708=DIRECTION('',(0.E0,-1.E0,0.E0));
#709=VECTOR('',#708,1.11E0);
#710=CARTESIAN_POINT('',(-9.3E-1,5.05E-1,-1.E0));
#711=LINE('',#710,#709);
#712=CARTESIAN_POINT('',(-3.81E0,1.26E0,0.E0));
#713=CARTESIAN_POINT('',(-3.81E0,-1.26E0,0.E0));
#714=VERTEX_POINT('',#712);
#715=VERTEX_POINT('',#713);
#716=CARTESIAN_POINT('',(3.81E0,-1.26E0,0.E0));
#717=VERTEX_POINT('',#716);
#718=CARTESIAN_POINT('',(3.81E0,1.26E0,0.E0));
#719=VERTEX_POINT('',#718);
#720=CARTESIAN_POINT('',(1.61E0,6.05E-1,-1.E0));
#721=CARTESIAN_POINT('',(3.47E0,6.05E-1,-1.E0));
#722=VERTEX_POINT('',#720);
#723=VERTEX_POINT('',#721);
#724=CARTESIAN_POINT('',(3.47E0,-5.05E-1,-1.E0));
#725=VERTEX_POINT('',#724);
#726=CARTESIAN_POINT('',(3.17E0,-8.05E-1,-1.E0));
#727=VERTEX_POINT('',#726);
#728=CARTESIAN_POINT('',(1.91E0,-8.05E-1,-1.E0));
#729=VERTEX_POINT('',#728);
#730=CARTESIAN_POINT('',(1.61E0,-5.05E-1,-1.E0));
#731=VERTEX_POINT('',#730);
#732=CARTESIAN_POINT('',(1.61E0,6.05E-1,0.E0));
#733=CARTESIAN_POINT('',(1.61E0,-5.05E-1,0.E0));
#734=VERTEX_POINT('',#732);
#735=VERTEX_POINT('',#733);
#736=CARTESIAN_POINT('',(1.91E0,-8.05E-1,0.E0));
#737=VERTEX_POINT('',#736);
#738=CARTESIAN_POINT('',(3.17E0,-8.05E-1,0.E0));
#739=VERTEX_POINT('',#738);
#740=CARTESIAN_POINT('',(3.47E0,-5.05E-1,0.E0));
#741=VERTEX_POINT('',#740);
#742=CARTESIAN_POINT('',(3.47E0,6.05E-1,0.E0));
#743=VERTEX_POINT('',#742);
#744=CARTESIAN_POINT('',(-6.3E-1,8.05E-1,-1.E0));
#745=CARTESIAN_POINT('',(-9.3E-1,5.05E-1,-1.E0));
#746=VERTEX_POINT('',#744);
#747=VERTEX_POINT('',#745);
#748=CARTESIAN_POINT('',(-9.3E-1,-6.05E-1,-1.E0));
#749=VERTEX_POINT('',#748);
#750=CARTESIAN_POINT('',(9.3E-1,-6.05E-1,-1.E0));
#751=VERTEX_POINT('',#750);
#752=CARTESIAN_POINT('',(9.3E-1,5.05E-1,-1.E0));
#753=VERTEX_POINT('',#752);
#754=CARTESIAN_POINT('',(6.3E-1,8.05E-1,-1.E0));
#755=VERTEX_POINT('',#754);
#756=CARTESIAN_POINT('',(-6.3E-1,8.05E-1,0.E0));
#757=CARTESIAN_POINT('',(-9.3E-1,5.05E-1,0.E0));
#758=VERTEX_POINT('',#756);
#759=VERTEX_POINT('',#757);
#760=CARTESIAN_POINT('',(-9.3E-1,-6.05E-1,0.E0));
#761=VERTEX_POINT('',#760);
#762=CARTESIAN_POINT('',(9.3E-1,-6.05E-1,0.E0));
#763=VERTEX_POINT('',#762);
#764=CARTESIAN_POINT('',(9.3E-1,5.05E-1,0.E0));
#765=VERTEX_POINT('',#764);
#766=CARTESIAN_POINT('',(6.3E-1,8.05E-1,0.E0));
#767=VERTEX_POINT('',#766);
#768=CARTESIAN_POINT('',(2.19E0,-9.9E-2,-7.667555961589E0));
#769=CARTESIAN_POINT('',(2.19E0,-9.9E-2,-1.01E1));
#770=VERTEX_POINT('',#768);
#771=VERTEX_POINT('',#769);
#772=CARTESIAN_POINT('',(2.19E0,9.9E-2,-1.01E1));
#773=VERTEX_POINT('',#772);
#774=CARTESIAN_POINT('',(2.19E0,9.9E-2,-7.667555961589E0));
#775=VERTEX_POINT('',#774);
#776=CARTESIAN_POINT('',(2.89E0,-9.9E-2,-7.667555961589E0));
#777=CARTESIAN_POINT('',(2.89E0,-9.9E-2,-1.01E1));
#778=VERTEX_POINT('',#776);
#779=VERTEX_POINT('',#777);
#780=CARTESIAN_POINT('',(2.89E0,9.9E-2,-1.01E1));
#781=VERTEX_POINT('',#780);
#782=CARTESIAN_POINT('',(2.89E0,9.9E-2,-7.667555961589E0));
#783=VERTEX_POINT('',#782);
#784=CARTESIAN_POINT('',(2.19E0,-9.9E-2,-6.7E0));
#785=CARTESIAN_POINT('',(2.19E0,9.9E-2,-6.7E0));
#786=VERTEX_POINT('',#784);
#787=VERTEX_POINT('',#785);
#788=CARTESIAN_POINT('',(2.89E0,-9.9E-2,-6.7E0));
#789=CARTESIAN_POINT('',(2.89E0,9.9E-2,-6.7E0));
#790=VERTEX_POINT('',#788);
#791=VERTEX_POINT('',#789);
#792=CARTESIAN_POINT('',(-3.5E-1,-9.9E-2,-7.667555961589E0));
#793=CARTESIAN_POINT('',(-3.5E-1,-9.9E-2,-1.01E1));
#794=VERTEX_POINT('',#792);
#795=VERTEX_POINT('',#793);
#796=CARTESIAN_POINT('',(-3.5E-1,9.9E-2,-1.01E1));
#797=VERTEX_POINT('',#796);
#798=CARTESIAN_POINT('',(-3.5E-1,9.9E-2,-7.667555961589E0));
#799=VERTEX_POINT('',#798);
#800=CARTESIAN_POINT('',(3.5E-1,-9.9E-2,-7.667555961589E0));
#801=CARTESIAN_POINT('',(3.5E-1,-9.9E-2,-1.01E1));
#802=VERTEX_POINT('',#800);
#803=VERTEX_POINT('',#801);
#804=CARTESIAN_POINT('',(3.5E-1,9.9E-2,-1.01E1));
#805=VERTEX_POINT('',#804);
#806=CARTESIAN_POINT('',(3.5E-1,9.9E-2,-7.667555961589E0));
#807=VERTEX_POINT('',#806);
#808=CARTESIAN_POINT('',(-3.5E-1,-9.9E-2,-6.7E0));
#809=CARTESIAN_POINT('',(-3.5E-1,9.9E-2,-6.7E0));
#810=VERTEX_POINT('',#808);
#811=VERTEX_POINT('',#809);
#812=CARTESIAN_POINT('',(3.5E-1,-9.9E-2,-6.7E0));
#813=CARTESIAN_POINT('',(3.5E-1,9.9E-2,-6.7E0));
#814=VERTEX_POINT('',#812);
#815=VERTEX_POINT('',#813);
#816=CARTESIAN_POINT('',(3.81E0,5.6E-1,-7.E0));
#817=CARTESIAN_POINT('',(3.81E0,1.26E0,-7.E0));
#818=VERTEX_POINT('',#816);
#819=VERTEX_POINT('',#817);
#820=CARTESIAN_POINT('',(3.81E0,-1.26E0,-7.E0));
#821=CARTESIAN_POINT('',(3.81E0,-5.6E-1,-7.E0));
#822=VERTEX_POINT('',#820);
#823=VERTEX_POINT('',#821);
#824=CARTESIAN_POINT('',(-3.81E0,5.6E-1,-7.E0));
#825=CARTESIAN_POINT('',(-3.81E0,1.26E0,-7.E0));
#826=VERTEX_POINT('',#824);
#827=VERTEX_POINT('',#825);
#828=CARTESIAN_POINT('',(-3.81E0,-1.26E0,-7.E0));
#829=CARTESIAN_POINT('',(-3.81E0,-5.6E-1,-7.E0));
#830=VERTEX_POINT('',#828);
#831=VERTEX_POINT('',#829);
#832=CARTESIAN_POINT('',(-3.81E0,4.508089297201E-1,-6.7E0));
#833=CARTESIAN_POINT('',(3.81E0,4.508089297201E-1,-6.7E0));
#834=VERTEX_POINT('',#832);
#835=VERTEX_POINT('',#833);
#836=CARTESIAN_POINT('',(-3.81E0,-4.508089297201E-1,-6.7E0));
#837=VERTEX_POINT('',#836);
#838=CARTESIAN_POINT('',(3.81E0,-4.508089297201E-1,-6.7E0));
#839=VERTEX_POINT('',#838);
#840=CARTESIAN_POINT('',(-3.47E0,6.05E-1,-1.E0));
#841=CARTESIAN_POINT('',(-3.47E0,-5.05E-1,-1.E0));
#842=VERTEX_POINT('',#840);
#843=VERTEX_POINT('',#841);
#844=CARTESIAN_POINT('',(-3.17E0,-8.05E-1,-1.E0));
#845=VERTEX_POINT('',#844);
#846=CARTESIAN_POINT('',(-1.91E0,-8.05E-1,-1.E0));
#847=VERTEX_POINT('',#846);
#848=CARTESIAN_POINT('',(-1.61E0,-5.05E-1,-1.E0));
#849=VERTEX_POINT('',#848);
#850=CARTESIAN_POINT('',(-1.61E0,6.05E-1,-1.E0));
#851=VERTEX_POINT('',#850);
#852=CARTESIAN_POINT('',(-3.47E0,6.05E-1,0.E0));
#853=CARTESIAN_POINT('',(-3.47E0,-5.05E-1,0.E0));
#854=VERTEX_POINT('',#852);
#855=VERTEX_POINT('',#853);
#856=CARTESIAN_POINT('',(-3.17E0,-8.05E-1,0.E0));
#857=VERTEX_POINT('',#856);
#858=CARTESIAN_POINT('',(-1.91E0,-8.05E-1,0.E0));
#859=VERTEX_POINT('',#858);
#860=CARTESIAN_POINT('',(-1.61E0,-5.05E-1,0.E0));
#861=VERTEX_POINT('',#860);
#862=CARTESIAN_POINT('',(-1.61E0,6.05E-1,0.E0));
#863=VERTEX_POINT('',#862);
#864=CARTESIAN_POINT('',(-2.89E0,-9.9E-2,-7.667555961589E0));
#865=CARTESIAN_POINT('',(-2.89E0,-9.9E-2,-1.01E1));
#866=VERTEX_POINT('',#864);
#867=VERTEX_POINT('',#865);
#868=CARTESIAN_POINT('',(-2.89E0,9.9E-2,-1.01E1));
#869=VERTEX_POINT('',#868);
#870=CARTESIAN_POINT('',(-2.89E0,9.9E-2,-7.667555961589E0));
#871=VERTEX_POINT('',#870);
#872=CARTESIAN_POINT('',(-2.19E0,-9.9E-2,-7.667555961589E0));
#873=CARTESIAN_POINT('',(-2.19E0,-9.9E-2,-1.01E1));
#874=VERTEX_POINT('',#872);
#875=VERTEX_POINT('',#873);
#876=CARTESIAN_POINT('',(-2.19E0,9.9E-2,-1.01E1));
#877=VERTEX_POINT('',#876);
#878=CARTESIAN_POINT('',(-2.19E0,9.9E-2,-7.667555961589E0));
#879=VERTEX_POINT('',#878);
#880=CARTESIAN_POINT('',(-2.89E0,-9.9E-2,-6.7E0));
#881=CARTESIAN_POINT('',(-2.89E0,9.9E-2,-6.7E0));
#882=VERTEX_POINT('',#880);
#883=VERTEX_POINT('',#881);
#884=CARTESIAN_POINT('',(-2.19E0,-9.9E-2,-6.7E0));
#885=CARTESIAN_POINT('',(-2.19E0,9.9E-2,-6.7E0));
#886=VERTEX_POINT('',#884);
#887=VERTEX_POINT('',#885);
#888=CARTESIAN_POINT('',(2.91E0,-4.5E-1,-6.6E0));
#889=CARTESIAN_POINT('',(1.71E0,-4.5E-1,-6.6E0));
#890=VERTEX_POINT('',#888);
#891=VERTEX_POINT('',#889);
#892=CARTESIAN_POINT('',(1.71E0,-3.E-1,-6.6E0));
#893=VERTEX_POINT('',#892);
#894=CARTESIAN_POINT('',(1.888723382950E0,-1.5E-1,-6.6E0));
#895=VERTEX_POINT('',#894);
#896=CARTESIAN_POINT('',(2.092978749275E0,-1.5E-1,-6.6E0));
#897=VERTEX_POINT('',#896);
#898=CARTESIAN_POINT('',(1.914255294800E0,-3.E-1,-6.6E0));
#899=VERTEX_POINT('',#898);
#900=CARTESIAN_POINT('',(2.91E0,-3.E-1,-6.6E0));
#901=VERTEX_POINT('',#900);
#902=CARTESIAN_POINT('',(2.91E0,-4.503748939846E-1,-6.699951252812E0));
#903=CARTESIAN_POINT('',(1.71E0,-4.503748939846E-1,-6.699951252812E0));
#904=VERTEX_POINT('',#902);
#905=VERTEX_POINT('',#903);
#906=CARTESIAN_POINT('',(1.71E0,-3.E-1,-6.7E0));
#907=VERTEX_POINT('',#906);
#908=CARTESIAN_POINT('',(1.888723382950E0,-1.5E-1,-6.7E0));
#909=VERTEX_POINT('',#908);
#910=CARTESIAN_POINT('',(2.092978749275E0,-1.5E-1,-6.7E0));
#911=VERTEX_POINT('',#910);
#912=CARTESIAN_POINT('',(1.914255294800E0,-3.E-1,-6.7E0));
#913=VERTEX_POINT('',#912);
#914=CARTESIAN_POINT('',(2.91E0,-3.E-1,-6.7E0));
#915=VERTEX_POINT('',#914);
#916=CARTESIAN_POINT('',(0.E0,0.E0,0.E0));
#917=DIRECTION('',(0.E0,0.E0,1.E0));
#918=DIRECTION('',(1.E0,0.E0,0.E0));
#919=AXIS2_PLACEMENT_3D('',#916,#917,#918);
#920=PLANE('',#919);
#922=ORIENTED_EDGE('',*,*,#921,.F.);
#924=ORIENTED_EDGE('',*,*,#923,.F.);
#926=ORIENTED_EDGE('',*,*,#925,.F.);
#928=ORIENTED_EDGE('',*,*,#927,.F.);
#929=EDGE_LOOP('',(#922,#924,#926,#928));
#930=FACE_OUTER_BOUND('',#929,.F.);
#932=ORIENTED_EDGE('',*,*,#931,.T.);
#934=ORIENTED_EDGE('',*,*,#933,.T.);
#936=ORIENTED_EDGE('',*,*,#935,.T.);
#938=ORIENTED_EDGE('',*,*,#937,.T.);
#940=ORIENTED_EDGE('',*,*,#939,.T.);
#942=ORIENTED_EDGE('',*,*,#941,.T.);
#943=EDGE_LOOP('',(#932,#934,#936,#938,#940,#942));
#944=FACE_BOUND('',#943,.F.);
#946=ORIENTED_EDGE('',*,*,#945,.T.);
#948=ORIENTED_EDGE('',*,*,#947,.T.);
#950=ORIENTED_EDGE('',*,*,#949,.T.);
#952=ORIENTED_EDGE('',*,*,#951,.T.);
#954=ORIENTED_EDGE('',*,*,#953,.T.);
#956=ORIENTED_EDGE('',*,*,#955,.T.);
#957=EDGE_LOOP('',(#946,#948,#950,#952,#954,#956));
#958=FACE_BOUND('',#957,.F.);
#960=ORIENTED_EDGE('',*,*,#959,.T.);
#962=ORIENTED_EDGE('',*,*,#961,.T.);
#964=ORIENTED_EDGE('',*,*,#963,.T.);
#966=ORIENTED_EDGE('',*,*,#965,.T.);
#968=ORIENTED_EDGE('',*,*,#967,.T.);
#970=ORIENTED_EDGE('',*,*,#969,.T.);
#971=EDGE_LOOP('',(#960,#962,#964,#966,#968,#970));
#972=FACE_BOUND('',#971,.F.);
#973=ADVANCED_FACE('',(#930,#944,#958,#972),#920,.T.);
#974=CARTESIAN_POINT('',(-3.81E0,1.26E0,0.E0));
#975=DIRECTION('',(-1.E0,0.E0,0.E0));
#976=DIRECTION('',(0.E0,-1.E0,0.E0));
#977=AXIS2_PLACEMENT_3D('',#974,#975,#976);
#978=PLANE('',#977);
#980=ORIENTED_EDGE('',*,*,#979,.F.);
#982=ORIENTED_EDGE('',*,*,#981,.T.);
#984=ORIENTED_EDGE('',*,*,#983,.T.);
#986=ORIENTED_EDGE('',*,*,#985,.T.);
#987=ORIENTED_EDGE('',*,*,#921,.T.);
#989=ORIENTED_EDGE('',*,*,#988,.T.);
#991=ORIENTED_EDGE('',*,*,#990,.T.);
#993=ORIENTED_EDGE('',*,*,#992,.T.);
#994=EDGE_LOOP('',(#980,#982,#984,#986,#987,#989,#991,#993));
#995=FACE_OUTER_BOUND('',#994,.F.);
#996=ADVANCED_FACE('',(#995),#978,.T.);
#997=CARTESIAN_POINT('',(0.E0,0.E0,-6.7E0));
#998=DIRECTION('',(0.E0,0.E0,1.E0));
#999=DIRECTION('',(1.E0,0.E0,0.E0));
#1000=AXIS2_PLACEMENT_3D('',#997,#998,#999);
#1001=PLANE('',#1000);
#1003=ORIENTED_EDGE('',*,*,#1002,.T.);
#1005=ORIENTED_EDGE('',*,*,#1004,.T.);
#1007=ORIENTED_EDGE('',*,*,#1006,.T.);
#1009=ORIENTED_EDGE('',*,*,#1008,.T.);
#1011=ORIENTED_EDGE('',*,*,#1010,.T.);
#1013=ORIENTED_EDGE('',*,*,#1012,.T.);
#1015=ORIENTED_EDGE('',*,*,#1014,.T.);
#1017=ORIENTED_EDGE('',*,*,#1016,.T.);
#1019=ORIENTED_EDGE('',*,*,#1018,.F.);
#1020=ORIENTED_EDGE('',*,*,#979,.T.);
#1022=ORIENTED_EDGE('',*,*,#1021,.T.);
#1023=EDGE_LOOP('',(#1003,#1005,#1007,#1009,#1011,#1013,#1015,#1017,#1019,#1020,
#1022));
#1024=FACE_OUTER_BOUND('',#1023,.F.);
#1026=ORIENTED_EDGE('',*,*,#1025,.T.);
#1028=ORIENTED_EDGE('',*,*,#1027,.T.);
#1030=ORIENTED_EDGE('',*,*,#1029,.F.);
#1032=ORIENTED_EDGE('',*,*,#1031,.F.);
#1033=EDGE_LOOP('',(#1026,#1028,#1030,#1032));
#1034=FACE_BOUND('',#1033,.F.);
#1036=ORIENTED_EDGE('',*,*,#1035,.T.);
#1038=ORIENTED_EDGE('',*,*,#1037,.T.);
#1040=ORIENTED_EDGE('',*,*,#1039,.F.);
#1042=ORIENTED_EDGE('',*,*,#1041,.F.);
#1043=EDGE_LOOP('',(#1036,#1038,#1040,#1042));
#1044=FACE_BOUND('',#1043,.F.);
#1046=ORIENTED_EDGE('',*,*,#1045,.T.);
#1048=ORIENTED_EDGE('',*,*,#1047,.T.);
#1050=ORIENTED_EDGE('',*,*,#1049,.F.);
#1052=ORIENTED_EDGE('',*,*,#1051,.F.);
#1053=EDGE_LOOP('',(#1046,#1048,#1050,#1052));
#1054=FACE_BOUND('',#1053,.F.);
#1055=ADVANCED_FACE('',(#1024,#1034,#1044,#1054),#1001,.F.);
#1056=CARTESIAN_POINT('',(2.19E0,0.E0,0.E0));
#1057=DIRECTION('',(1.E0,0.E0,0.E0));
#1058=DIRECTION('',(0.E0,0.E0,-1.E0));
#1059=AXIS2_PLACEMENT_3D('',#1056,#1057,#1058);
#1060=PLANE('',#1059);
#1061=ORIENTED_EDGE('',*,*,#1025,.F.);
#1063=ORIENTED_EDGE('',*,*,#1062,.T.);
#1065=ORIENTED_EDGE('',*,*,#1064,.T.);
#1067=ORIENTED_EDGE('',*,*,#1066,.T.);
#1069=ORIENTED_EDGE('',*,*,#1068,.T.);
#1071=ORIENTED_EDGE('',*,*,#1070,.T.);
#1072=EDGE_LOOP('',(#1061,#1063,#1065,#1067,#1069,#1071));
#1073=FACE_OUTER_BOUND('',#1072,.F.);
#1074=ADVANCED_FACE('',(#1073),#1060,.F.);
#1075=CARTESIAN_POINT('',(2.19E0,-9.9E-2,-6.7E0));
#1076=DIRECTION('',(0.E0,-1.E0,0.E0));
#1077=DIRECTION('',(0.E0,0.E0,-1.E0));
#1078=AXIS2_PLACEMENT_3D('',#1075,#1076,#1077);
#1079=PLANE('',#1078);
#1080=ORIENTED_EDGE('',*,*,#1031,.T.);
#1082=ORIENTED_EDGE('',*,*,#1081,.T.);
#1084=ORIENTED_EDGE('',*,*,#1083,.F.);
#1085=ORIENTED_EDGE('',*,*,#1062,.F.);
#1086=EDGE_LOOP('',(#1080,#1082,#1084,#1085));
#1087=FACE_OUTER_BOUND('',#1086,.F.);
#1088=ADVANCED_FACE('',(#1087),#1079,.T.);
#1089=CARTESIAN_POINT('',(2.89E0,0.E0,0.E0));
#1090=DIRECTION('',(1.E0,0.E0,0.E0));
#1091=DIRECTION('',(0.E0,0.E0,-1.E0));
#1092=AXIS2_PLACEMENT_3D('',#1089,#1090,#1091);
#1093=PLANE('',#1092);
#1094=ORIENTED_EDGE('',*,*,#1029,.T.);
#1096=ORIENTED_EDGE('',*,*,#1095,.F.);
#1098=ORIENTED_EDGE('',*,*,#1097,.F.);
#1100=ORIENTED_EDGE('',*,*,#1099,.F.);
#1102=ORIENTED_EDGE('',*,*,#1101,.F.);
#1103=ORIENTED_EDGE('',*,*,#1081,.F.);
#1104=EDGE_LOOP('',(#1094,#1096,#1098,#1100,#1102,#1103));
#1105=FACE_OUTER_BOUND('',#1104,.F.);
#1106=ADVANCED_FACE('',(#1105),#1093,.T.);
#1107=CARTESIAN_POINT('',(2.19E0,9.9E-2,-7.667555961589E0));
#1108=DIRECTION('',(0.E0,1.E0,0.E0));
#1109=DIRECTION('',(0.E0,0.E0,1.E0));
#1110=AXIS2_PLACEMENT_3D('',#1107,#1108,#1109);
#1111=PLANE('',#1110);
#1112=ORIENTED_EDGE('',*,*,#1027,.F.);
#1113=ORIENTED_EDGE('',*,*,#1070,.F.);
#1115=ORIENTED_EDGE('',*,*,#1114,.T.);
#1116=ORIENTED_EDGE('',*,*,#1095,.T.);
#1117=EDGE_LOOP('',(#1112,#1113,#1115,#1116));
#1118=FACE_OUTER_BOUND('',#1117,.F.);
#1119=ADVANCED_FACE('',(#1118),#1111,.T.);
#1120=CARTESIAN_POINT('',(2.19E0,-2.199E0,-8.883777980795E0));
#1121=DIRECTION('',(1.E0,0.E0,0.E0));
#1122=DIRECTION('',(0.E0,0.E0,-1.E0));
#1123=AXIS2_PLACEMENT_3D('',#1120,#1121,#1122);
#1124=CYLINDRICAL_SURFACE('',#1123,2.6E0);
#1125=ORIENTED_EDGE('',*,*,#1068,.F.);
#1127=ORIENTED_EDGE('',*,*,#1126,.T.);
#1128=ORIENTED_EDGE('',*,*,#1097,.T.);
#1129=ORIENTED_EDGE('',*,*,#1114,.F.);
#1130=EDGE_LOOP('',(#1125,#1127,#1128,#1129));
#1131=FACE_OUTER_BOUND('',#1130,.F.);
#1132=ADVANCED_FACE('',(#1131),#1124,.T.);
#1133=CARTESIAN_POINT('',(2.19E0,-9.9E-2,-1.01E1));
#1134=DIRECTION('',(0.E0,0.E0,-1.E0));
#1135=DIRECTION('',(0.E0,1.E0,0.E0));
#1136=AXIS2_PLACEMENT_3D('',#1133,#1134,#1135);
#1137=PLANE('',#1136);
#1138=ORIENTED_EDGE('',*,*,#1066,.F.);
#1140=ORIENTED_EDGE('',*,*,#1139,.T.);
#1141=ORIENTED_EDGE('',*,*,#1099,.T.);
#1142=ORIENTED_EDGE('',*,*,#1126,.F.);
#1143=EDGE_LOOP('',(#1138,#1140,#1141,#1142));
#1144=FACE_OUTER_BOUND('',#1143,.F.);
#1145=ADVANCED_FACE('',(#1144),#1137,.T.);
#1146=CARTESIAN_POINT('',(2.19E0,-2.397E0,-8.883777980795E0));
#1147=DIRECTION('',(1.E0,0.E0,0.E0));
#1148=DIRECTION('',(0.E0,0.E0,-1.E0));
#1149=AXIS2_PLACEMENT_3D('',#1146,#1147,#1148);
#1150=CYLINDRICAL_SURFACE('',#1149,2.6E0);
#1151=ORIENTED_EDGE('',*,*,#1064,.F.);
#1152=ORIENTED_EDGE('',*,*,#1083,.T.);
#1153=ORIENTED_EDGE('',*,*,#1101,.T.);
#1154=ORIENTED_EDGE('',*,*,#1139,.F.);
#1155=EDGE_LOOP('',(#1151,#1152,#1153,#1154));
#1156=FACE_OUTER_BOUND('',#1155,.F.);
#1157=ADVANCED_FACE('',(#1156),#1150,.F.);
#1158=CARTESIAN_POINT('',(-2.89E0,0.E0,0.E0));
#1159=DIRECTION('',(1.E0,0.E0,0.E0));
#1160=DIRECTION('',(0.E0,0.E0,-1.E0));
#1161=AXIS2_PLACEMENT_3D('',#1158,#1159,#1160);
#1162=PLANE('',#1161);
#1163=ORIENTED_EDGE('',*,*,#1035,.F.);
#1165=ORIENTED_EDGE('',*,*,#1164,.T.);
#1167=ORIENTED_EDGE('',*,*,#1166,.T.);
#1169=ORIENTED_EDGE('',*,*,#1168,.T.);
#1171=ORIENTED_EDGE('',*,*,#1170,.T.);
#1173=ORIENTED_EDGE('',*,*,#1172,.T.);
#1174=EDGE_LOOP('',(#1163,#1165,#1167,#1169,#1171,#1173));
#1175=FACE_OUTER_BOUND('',#1174,.F.);
#1176=ADVANCED_FACE('',(#1175),#1162,.F.);
#1177=CARTESIAN_POINT('',(-2.89E0,-9.9E-2,-6.7E0));
#1178=DIRECTION('',(0.E0,-1.E0,0.E0));
#1179=DIRECTION('',(0.E0,0.E0,-1.E0));
#1180=AXIS2_PLACEMENT_3D('',#1177,#1178,#1179);
#1181=PLANE('',#1180);
#1182=ORIENTED_EDGE('',*,*,#1041,.T.);
#1184=ORIENTED_EDGE('',*,*,#1183,.T.);
#1186=ORIENTED_EDGE('',*,*,#1185,.F.);
#1187=ORIENTED_EDGE('',*,*,#1164,.F.);
#1188=EDGE_LOOP('',(#1182,#1184,#1186,#1187));
#1189=FACE_OUTER_BOUND('',#1188,.F.);
#1190=ADVANCED_FACE('',(#1189),#1181,.T.);
#1191=CARTESIAN_POINT('',(-2.19E0,0.E0,0.E0));
#1192=DIRECTION('',(1.E0,0.E0,0.E0));
#1193=DIRECTION('',(0.E0,0.E0,-1.E0));
#1194=AXIS2_PLACEMENT_3D('',#1191,#1192,#1193);
#1195=PLANE('',#1194);
#1196=ORIENTED_EDGE('',*,*,#1039,.T.);
#1198=ORIENTED_EDGE('',*,*,#1197,.F.);
#1200=ORIENTED_EDGE('',*,*,#1199,.F.);
#1202=ORIENTED_EDGE('',*,*,#1201,.F.);
#1204=ORIENTED_EDGE('',*,*,#1203,.F.);
#1205=ORIENTED_EDGE('',*,*,#1183,.F.);
#1206=EDGE_LOOP('',(#1196,#1198,#1200,#1202,#1204,#1205));
#1207=FACE_OUTER_BOUND('',#1206,.F.);
#1208=ADVANCED_FACE('',(#1207),#1195,.T.);
#1209=CARTESIAN_POINT('',(-2.89E0,9.9E-2,-7.667555961589E0));
#1210=DIRECTION('',(0.E0,1.E0,0.E0));
#1211=DIRECTION('',(0.E0,0.E0,1.E0));
#1212=AXIS2_PLACEMENT_3D('',#1209,#1210,#1211);
#1213=PLANE('',#1212);
#1214=ORIENTED_EDGE('',*,*,#1037,.F.);
#1215=ORIENTED_EDGE('',*,*,#1172,.F.);
#1217=ORIENTED_EDGE('',*,*,#1216,.T.);
#1218=ORIENTED_EDGE('',*,*,#1197,.T.);
#1219=EDGE_LOOP('',(#1214,#1215,#1217,#1218));
#1220=FACE_OUTER_BOUND('',#1219,.F.);
#1221=ADVANCED_FACE('',(#1220),#1213,.T.);
#1222=CARTESIAN_POINT('',(-2.89E0,-2.199E0,-8.883777980795E0));
#1223=DIRECTION('',(1.E0,0.E0,0.E0));
#1224=DIRECTION('',(0.E0,0.E0,-1.E0));
#1225=AXIS2_PLACEMENT_3D('',#1222,#1223,#1224);
#1226=CYLINDRICAL_SURFACE('',#1225,2.6E0);
#1227=ORIENTED_EDGE('',*,*,#1170,.F.);
#1229=ORIENTED_EDGE('',*,*,#1228,.T.);
#1230=ORIENTED_EDGE('',*,*,#1199,.T.);
#1231=ORIENTED_EDGE('',*,*,#1216,.F.);
#1232=EDGE_LOOP('',(#1227,#1229,#1230,#1231));
#1233=FACE_OUTER_BOUND('',#1232,.F.);
#1234=ADVANCED_FACE('',(#1233),#1226,.T.);
#1235=CARTESIAN_POINT('',(-2.89E0,-9.9E-2,-1.01E1));
#1236=DIRECTION('',(0.E0,0.E0,-1.E0));
#1237=DIRECTION('',(0.E0,1.E0,0.E0));
#1238=AXIS2_PLACEMENT_3D('',#1235,#1236,#1237);
#1239=PLANE('',#1238);
#1240=ORIENTED_EDGE('',*,*,#1168,.F.);
#1242=ORIENTED_EDGE('',*,*,#1241,.T.);
#1243=ORIENTED_EDGE('',*,*,#1201,.T.);
#1244=ORIENTED_EDGE('',*,*,#1228,.F.);
#1245=EDGE_LOOP('',(#1240,#1242,#1243,#1244));
#1246=FACE_OUTER_BOUND('',#1245,.F.);
#1247=ADVANCED_FACE('',(#1246),#1239,.T.);
#1248=CARTESIAN_POINT('',(-2.89E0,-2.397E0,-8.883777980795E0));
#1249=DIRECTION('',(1.E0,0.E0,0.E0));
#1250=DIRECTION('',(0.E0,0.E0,-1.E0));
#1251=AXIS2_PLACEMENT_3D('',#1248,#1249,#1250);
#1252=CYLINDRICAL_SURFACE('',#1251,2.6E0);
#1253=ORIENTED_EDGE('',*,*,#1166,.F.);
#1254=ORIENTED_EDGE('',*,*,#1185,.T.);
#1255=ORIENTED_EDGE('',*,*,#1203,.T.);
#1256=ORIENTED_EDGE('',*,*,#1241,.F.);
#1257=EDGE_LOOP('',(#1253,#1254,#1255,#1256));
#1258=FACE_OUTER_BOUND('',#1257,.F.);
#1259=ADVANCED_FACE('',(#1258),#1252,.F.);
#1260=CARTESIAN_POINT('',(-3.5E-1,0.E0,0.E0));
#1261=DIRECTION('',(1.E0,0.E0,0.E0));
#1262=DIRECTION('',(0.E0,0.E0,-1.E0));
#1263=AXIS2_PLACEMENT_3D('',#1260,#1261,#1262);
#1264=PLANE('',#1263);
#1265=ORIENTED_EDGE('',*,*,#1045,.F.);
#1267=ORIENTED_EDGE('',*,*,#1266,.T.);
#1269=ORIENTED_EDGE('',*,*,#1268,.T.);
#1271=ORIENTED_EDGE('',*,*,#1270,.T.);
#1273=ORIENTED_EDGE('',*,*,#1272,.T.);
#1275=ORIENTED_EDGE('',*,*,#1274,.T.);
#1276=EDGE_LOOP('',(#1265,#1267,#1269,#1271,#1273,#1275));
#1277=FACE_OUTER_BOUND('',#1276,.F.);
#1278=ADVANCED_FACE('',(#1277),#1264,.F.);
#1279=CARTESIAN_POINT('',(-3.5E-1,-9.9E-2,-6.7E0));
#1280=DIRECTION('',(0.E0,-1.E0,0.E0));
#1281=DIRECTION('',(0.E0,0.E0,-1.E0));
#1282=AXIS2_PLACEMENT_3D('',#1279,#1280,#1281);
#1283=PLANE('',#1282);
#1284=ORIENTED_EDGE('',*,*,#1051,.T.);
#1286=ORIENTED_EDGE('',*,*,#1285,.T.);
#1288=ORIENTED_EDGE('',*,*,#1287,.F.);
#1289=ORIENTED_EDGE('',*,*,#1266,.F.);
#1290=EDGE_LOOP('',(#1284,#1286,#1288,#1289));
#1291=FACE_OUTER_BOUND('',#1290,.F.);
#1292=ADVANCED_FACE('',(#1291),#1283,.T.);
#1293=CARTESIAN_POINT('',(3.5E-1,0.E0,0.E0));
#1294=DIRECTION('',(1.E0,0.E0,0.E0));
#1295=DIRECTION('',(0.E0,0.E0,-1.E0));
#1296=AXIS2_PLACEMENT_3D('',#1293,#1294,#1295);
#1297=PLANE('',#1296);
#1298=ORIENTED_EDGE('',*,*,#1049,.T.);
#1300=ORIENTED_EDGE('',*,*,#1299,.F.);
#1302=ORIENTED_EDGE('',*,*,#1301,.F.);
#1304=ORIENTED_EDGE('',*,*,#1303,.F.);
#1306=ORIENTED_EDGE('',*,*,#1305,.F.);
#1307=ORIENTED_EDGE('',*,*,#1285,.F.);
#1308=EDGE_LOOP('',(#1298,#1300,#1302,#1304,#1306,#1307));
#1309=FACE_OUTER_BOUND('',#1308,.F.);
#1310=ADVANCED_FACE('',(#1309),#1297,.T.);
#1311=CARTESIAN_POINT('',(-3.5E-1,9.9E-2,-7.667555961589E0));
#1312=DIRECTION('',(0.E0,1.E0,0.E0));
#1313=DIRECTION('',(0.E0,0.E0,1.E0));
#1314=AXIS2_PLACEMENT_3D('',#1311,#1312,#1313);
#1315=PLANE('',#1314);
#1316=ORIENTED_EDGE('',*,*,#1047,.F.);
#1317=ORIENTED_EDGE('',*,*,#1274,.F.);
#1319=ORIENTED_EDGE('',*,*,#1318,.T.);
#1320=ORIENTED_EDGE('',*,*,#1299,.T.);
#1321=EDGE_LOOP('',(#1316,#1317,#1319,#1320));
#1322=FACE_OUTER_BOUND('',#1321,.F.);
#1323=ADVANCED_FACE('',(#1322),#1315,.T.);
#1324=CARTESIAN_POINT('',(-3.5E-1,2.397E0,-8.883777980795E0));
#1325=DIRECTION('',(1.E0,0.E0,0.E0));
#1326=DIRECTION('',(0.E0,0.E0,-1.E0));
#1327=AXIS2_PLACEMENT_3D('',#1324,#1325,#1326);
#1328=CYLINDRICAL_SURFACE('',#1327,2.6E0);
#1329=ORIENTED_EDGE('',*,*,#1272,.F.);
#1331=ORIENTED_EDGE('',*,*,#1330,.T.);
#1332=ORIENTED_EDGE('',*,*,#1301,.T.);
#1333=ORIENTED_EDGE('',*,*,#1318,.F.);
#1334=EDGE_LOOP('',(#1329,#1331,#1332,#1333));
#1335=FACE_OUTER_BOUND('',#1334,.F.);
#1336=ADVANCED_FACE('',(#1335),#1328,.F.);
#1337=CARTESIAN_POINT('',(-3.5E-1,-9.9E-2,-1.01E1));
#1338=DIRECTION('',(0.E0,0.E0,-1.E0));
#1339=DIRECTION('',(0.E0,1.E0,0.E0));
#1340=AXIS2_PLACEMENT_3D('',#1337,#1338,#1339);
#1341=PLANE('',#1340);
#1342=ORIENTED_EDGE('',*,*,#1270,.F.);
#1344=ORIENTED_EDGE('',*,*,#1343,.T.);
#1345=ORIENTED_EDGE('',*,*,#1303,.T.);
#1346=ORIENTED_EDGE('',*,*,#1330,.F.);
#1347=EDGE_LOOP('',(#1342,#1344,#1345,#1346));
#1348=FACE_OUTER_BOUND('',#1347,.F.);
#1349=ADVANCED_FACE('',(#1348),#1341,.T.);
#1350=CARTESIAN_POINT('',(-3.5E-1,2.199E0,-8.883777980795E0));
#1351=DIRECTION('',(1.E0,0.E0,0.E0));
#1352=DIRECTION('',(0.E0,0.E0,-1.E0));
#1353=AXIS2_PLACEMENT_3D('',#1350,#1351,#1352);
#1354=CYLINDRICAL_SURFACE('',#1353,2.6E0);
#1355=ORIENTED_EDGE('',*,*,#1268,.F.);
#1356=ORIENTED_EDGE('',*,*,#1287,.T.);
#1357=ORIENTED_EDGE('',*,*,#1305,.T.);
#1358=ORIENTED_EDGE('',*,*,#1343,.F.);
#1359=EDGE_LOOP('',(#1355,#1356,#1357,#1358));
#1360=FACE_OUTER_BOUND('',#1359,.F.);
#1361=ADVANCED_FACE('',(#1360),#1354,.T.);
#1362=CARTESIAN_POINT('',(1.71E0,-4.5E-1,-6.7E0));
#1363=DIRECTION('',(-1.E0,0.E0,0.E0));
#1364=DIRECTION('',(0.E0,1.E0,0.E0));
#1365=AXIS2_PLACEMENT_3D('',#1362,#1363,#1364);
#1366=PLANE('',#1365);
#1367=ORIENTED_EDGE('',*,*,#1002,.F.);
#1369=ORIENTED_EDGE('',*,*,#1368,.T.);
#1371=ORIENTED_EDGE('',*,*,#1370,.T.);
#1373=ORIENTED_EDGE('',*,*,#1372,.F.);
#1374=EDGE_LOOP('',(#1367,#1369,#1371,#1373));
#1375=FACE_OUTER_BOUND('',#1374,.F.);
#1376=ADVANCED_FACE('',(#1375),#1366,.F.);
#1377=CARTESIAN_POINT('',(2.91E0,-4.5E-1,-6.7E0));
#1378=DIRECTION('',(0.E0,-1.E0,0.E0));
#1379=DIRECTION('',(-1.E0,0.E0,0.E0));
#1380=AXIS2_PLACEMENT_3D('',#1377,#1378,#1379);
#1381=PLANE('',#1380);
#1383=ORIENTED_EDGE('',*,*,#1382,.F.);
#1385=ORIENTED_EDGE('',*,*,#1384,.T.);
#1387=ORIENTED_EDGE('',*,*,#1386,.T.);
#1388=ORIENTED_EDGE('',*,*,#1368,.F.);
#1389=EDGE_LOOP('',(#1383,#1385,#1387,#1388));
#1390=FACE_OUTER_BOUND('',#1389,.F.);
#1391=ADVANCED_FACE('',(#1390),#1381,.F.);
#1392=CARTESIAN_POINT('',(3.81E0,-5.6E-1,-7.E0));
#1393=DIRECTION('',(0.E0,9.396926207859E-1,-3.420201433257E-1));
#1394=DIRECTION('',(0.E0,3.420201433257E-1,9.396926207859E-1));
#1395=AXIS2_PLACEMENT_3D('',#1392,#1393,#1394);
#1396=PLANE('',#1395);
#1397=ORIENTED_EDGE('',*,*,#1382,.T.);
#1398=ORIENTED_EDGE('',*,*,#1021,.F.);
#1399=ORIENTED_EDGE('',*,*,#992,.F.);
#1401=ORIENTED_EDGE('',*,*,#1400,.F.);
#1403=ORIENTED_EDGE('',*,*,#1402,.T.);
#1404=ORIENTED_EDGE('',*,*,#1014,.F.);
#1405=EDGE_LOOP('',(#1397,#1398,#1399,#1401,#1403,#1404));
#1406=FACE_OUTER_BOUND('',#1405,.F.);
#1407=ADVANCED_FACE('',(#1406),#1396,.T.);
#1408=CARTESIAN_POINT('',(3.81E0,-1.26E0,-7.E0));
#1409=DIRECTION('',(0.E0,0.E0,-1.E0));
#1410=DIRECTION('',(0.E0,1.E0,0.E0));
#1411=AXIS2_PLACEMENT_3D('',#1408,#1409,#1410);
#1412=PLANE('',#1411);
#1414=ORIENTED_EDGE('',*,*,#1413,.T.);
#1415=ORIENTED_EDGE('',*,*,#1400,.T.);
#1416=ORIENTED_EDGE('',*,*,#990,.F.);
#1418=ORIENTED_EDGE('',*,*,#1417,.F.);
#1419=EDGE_LOOP('',(#1414,#1415,#1416,#1418));
#1420=FACE_OUTER_BOUND('',#1419,.F.);
#1421=ADVANCED_FACE('',(#1420),#1412,.T.);
#1422=CARTESIAN_POINT('',(3.81E0,-1.26E0,0.E0));
#1423=DIRECTION('',(1.E0,0.E0,0.E0));
#1424=DIRECTION('',(0.E0,1.E0,0.E0));
#1425=AXIS2_PLACEMENT_3D('',#1422,#1423,#1424);
#1426=PLANE('',#1425);
#1428=ORIENTED_EDGE('',*,*,#1427,.F.);
#1430=ORIENTED_EDGE('',*,*,#1429,.F.);
#1432=ORIENTED_EDGE('',*,*,#1431,.F.);
#1433=ORIENTED_EDGE('',*,*,#1016,.F.);
#1434=ORIENTED_EDGE('',*,*,#1402,.F.);
#1435=ORIENTED_EDGE('',*,*,#1413,.F.);
#1437=ORIENTED_EDGE('',*,*,#1436,.F.);
#1438=ORIENTED_EDGE('',*,*,#925,.T.);
#1439=EDGE_LOOP('',(#1428,#1430,#1432,#1433,#1434,#1435,#1437,#1438));
#1440=FACE_OUTER_BOUND('',#1439,.F.);
#1441=ADVANCED_FACE('',(#1440),#1426,.T.);
#1442=CARTESIAN_POINT('',(3.81E0,1.26E0,0.E0));
#1443=DIRECTION('',(0.E0,1.E0,0.E0));
#1444=DIRECTION('',(-1.E0,0.E0,0.E0));
#1445=AXIS2_PLACEMENT_3D('',#1442,#1443,#1444);
#1446=PLANE('',#1445);
#1447=ORIENTED_EDGE('',*,*,#985,.F.);
#1449=ORIENTED_EDGE('',*,*,#1448,.F.);
#1450=ORIENTED_EDGE('',*,*,#1427,.T.);
#1451=ORIENTED_EDGE('',*,*,#923,.T.);
#1452=EDGE_LOOP('',(#1447,#1449,#1450,#1451));
#1453=FACE_OUTER_BOUND('',#1452,.F.);
#1454=ADVANCED_FACE('',(#1453),#1446,.T.);
#1455=CARTESIAN_POINT('',(3.81E0,5.6E-1,-7.E0));
#1456=DIRECTION('',(0.E0,0.E0,-1.E0));
#1457=DIRECTION('',(0.E0,1.E0,0.E0));
#1458=AXIS2_PLACEMENT_3D('',#1455,#1456,#1457);
#1459=PLANE('',#1458);
#1460=ORIENTED_EDGE('',*,*,#1429,.T.);
#1461=ORIENTED_EDGE('',*,*,#1448,.T.);
#1462=ORIENTED_EDGE('',*,*,#983,.F.);
#1464=ORIENTED_EDGE('',*,*,#1463,.F.);
#1465=EDGE_LOOP('',(#1460,#1461,#1462,#1464));
#1466=FACE_OUTER_BOUND('',#1465,.F.);
#1467=ADVANCED_FACE('',(#1466),#1459,.T.);
#1468=CARTESIAN_POINT('',(3.81E0,4.508089297201E-1,-6.7E0));
#1469=DIRECTION('',(0.E0,-9.396926207859E-1,-3.420201433257E-1));
#1470=DIRECTION('',(0.E0,3.420201433257E-1,-9.396926207859E-1));
#1471=AXIS2_PLACEMENT_3D('',#1468,#1469,#1470);
#1472=PLANE('',#1471);
#1473=ORIENTED_EDGE('',*,*,#1018,.T.);
#1474=ORIENTED_EDGE('',*,*,#1431,.T.);
#1475=ORIENTED_EDGE('',*,*,#1463,.T.);
#1476=ORIENTED_EDGE('',*,*,#981,.F.);
#1477=EDGE_LOOP('',(#1473,#1474,#1475,#1476));
#1478=FACE_OUTER_BOUND('',#1477,.F.);
#1479=ADVANCED_FACE('',(#1478),#1472,.T.);
#1480=CARTESIAN_POINT('',(-3.81E0,-1.26E0,0.E0));
#1481=DIRECTION('',(0.E0,-1.E0,0.E0));
#1482=DIRECTION('',(1.E0,0.E0,0.E0));
#1483=AXIS2_PLACEMENT_3D('',#1480,#1481,#1482);
#1484=PLANE('',#1483);
#1485=ORIENTED_EDGE('',*,*,#1436,.T.);
#1486=ORIENTED_EDGE('',*,*,#1417,.T.);
#1487=ORIENTED_EDGE('',*,*,#988,.F.);
#1488=ORIENTED_EDGE('',*,*,#927,.T.);
#1489=EDGE_LOOP('',(#1485,#1486,#1487,#1488));
#1490=FACE_OUTER_BOUND('',#1489,.F.);
#1491=ADVANCED_FACE('',(#1490),#1484,.T.);
#1492=CARTESIAN_POINT('',(2.91E0,-3.E-1,-6.7E0));
#1493=DIRECTION('',(1.E0,0.E0,0.E0));
#1494=DIRECTION('',(0.E0,-1.E0,0.E0));
#1495=AXIS2_PLACEMENT_3D('',#1492,#1493,#1494);
#1496=PLANE('',#1495);
#1497=ORIENTED_EDGE('',*,*,#1012,.F.);
#1499=ORIENTED_EDGE('',*,*,#1498,.T.);
#1501=ORIENTED_EDGE('',*,*,#1500,.T.);
#1502=ORIENTED_EDGE('',*,*,#1384,.F.);
#1503=EDGE_LOOP('',(#1497,#1499,#1501,#1502));
#1504=FACE_OUTER_BOUND('',#1503,.F.);
#1505=ADVANCED_FACE('',(#1504),#1496,.F.);
#1506=CARTESIAN_POINT('',(1.914255294800E0,-3.E-1,-6.7E0));
#1507=DIRECTION('',(0.E0,1.E0,0.E0));
#1508=DIRECTION('',(1.E0,0.E0,0.E0));
#1509=AXIS2_PLACEMENT_3D('',#1506,#1507,#1508);
#1510=PLANE('',#1509);
#1511=ORIENTED_EDGE('',*,*,#1010,.F.);
#1513=ORIENTED_EDGE('',*,*,#1512,.T.);
#1515=ORIENTED_EDGE('',*,*,#1514,.T.);
#1516=ORIENTED_EDGE('',*,*,#1498,.F.);
#1517=EDGE_LOOP('',(#1511,#1513,#1515,#1516));
#1518=FACE_OUTER_BOUND('',#1517,.F.);
#1519=ADVANCED_FACE('',(#1518),#1510,.F.);
#1520=CARTESIAN_POINT('',(2.092978749275E0,-1.5E-1,-6.7E0));
#1521=DIRECTION('',(6.428711427642E-1,-7.659743427825E-1,0.E0));
#1522=DIRECTION('',(-7.659743427825E-1,-6.428711427642E-1,0.E0));
#1523=AXIS2_PLACEMENT_3D('',#1520,#1521,#1522);
#1524=PLANE('',#1523);
#1525=ORIENTED_EDGE('',*,*,#1008,.F.);
#1527=ORIENTED_EDGE('',*,*,#1526,.T.);
#1529=ORIENTED_EDGE('',*,*,#1528,.T.);
#1530=ORIENTED_EDGE('',*,*,#1512,.F.);
#1531=EDGE_LOOP('',(#1525,#1527,#1529,#1530));
#1532=FACE_OUTER_BOUND('',#1531,.F.);
#1533=ADVANCED_FACE('',(#1532),#1524,.F.);
#1534=CARTESIAN_POINT('',(1.888723382950E0,-1.5E-1,-6.7E0));
#1535=DIRECTION('',(0.E0,1.E0,0.E0));
#1536=DIRECTION('',(1.E0,0.E0,0.E0));
#1537=AXIS2_PLACEMENT_3D('',#1534,#1535,#1536);
#1538=PLANE('',#1537);
#1539=ORIENTED_EDGE('',*,*,#1006,.F.);
#1541=ORIENTED_EDGE('',*,*,#1540,.T.);
#1543=ORIENTED_EDGE('',*,*,#1542,.T.);
#1544=ORIENTED_EDGE('',*,*,#1526,.F.);
#1545=EDGE_LOOP('',(#1539,#1541,#1543,#1544));
#1546=FACE_OUTER_BOUND('',#1545,.F.);
#1547=ADVANCED_FACE('',(#1546),#1538,.F.);
#1548=CARTESIAN_POINT('',(1.71E0,-3.E-1,-6.7E0));
#1549=DIRECTION('',(-6.428712937139E-1,7.659742160926E-1,0.E0));
#1550=DIRECTION('',(7.659742160926E-1,6.428712937139E-1,0.E0));
#1551=AXIS2_PLACEMENT_3D('',#1548,#1549,#1550);
#1552=PLANE('',#1551);
#1553=ORIENTED_EDGE('',*,*,#1004,.F.);
#1554=ORIENTED_EDGE('',*,*,#1372,.T.);
#1556=ORIENTED_EDGE('',*,*,#1555,.T.);
#1557=ORIENTED_EDGE('',*,*,#1540,.F.);
#1558=EDGE_LOOP('',(#1553,#1554,#1556,#1557));
#1559=FACE_OUTER_BOUND('',#1558,.F.);
#1560=ADVANCED_FACE('',(#1559),#1552,.F.);
#1561=CARTESIAN_POINT('',(0.E0,0.E0,-6.6E0));
#1562=DIRECTION('',(0.E0,0.E0,-1.E0));
#1563=DIRECTION('',(-1.E0,0.E0,0.E0));
#1564=AXIS2_PLACEMENT_3D('',#1561,#1562,#1563);
#1565=PLANE('',#1564);
#1566=ORIENTED_EDGE('',*,*,#1386,.F.);
#1567=ORIENTED_EDGE('',*,*,#1500,.F.);
#1568=ORIENTED_EDGE('',*,*,#1514,.F.);
#1569=ORIENTED_EDGE('',*,*,#1528,.F.);
#1570=ORIENTED_EDGE('',*,*,#1542,.F.);
#1571=ORIENTED_EDGE('',*,*,#1555,.F.);
#1572=ORIENTED_EDGE('',*,*,#1370,.F.);
#1573=EDGE_LOOP('',(#1566,#1567,#1568,#1569,#1570,#1571,#1572));
#1574=FACE_OUTER_BOUND('',#1573,.F.);
#1575=ADVANCED_FACE('',(#1574),#1565,.T.);
#1576=CARTESIAN_POINT('',(1.61E0,6.05E-1,0.E0));
#1577=DIRECTION('',(-1.E0,0.E0,0.E0));
#1578=DIRECTION('',(0.E0,-1.E0,0.E0));
#1579=AXIS2_PLACEMENT_3D('',#1576,#1577,#1578);
#1580=PLANE('',#1579);
#1581=ORIENTED_EDGE('',*,*,#931,.F.);
#1583=ORIENTED_EDGE('',*,*,#1582,.T.);
#1585=ORIENTED_EDGE('',*,*,#1584,.F.);
#1587=ORIENTED_EDGE('',*,*,#1586,.F.);
#1588=EDGE_LOOP('',(#1581,#1583,#1585,#1587));
#1589=FACE_OUTER_BOUND('',#1588,.F.);
#1590=ADVANCED_FACE('',(#1589),#1580,.F.);
#1591=CARTESIAN_POINT('',(3.47E0,6.05E-1,0.E0));
#1592=DIRECTION('',(0.E0,1.E0,0.E0));
#1593=DIRECTION('',(-1.E0,0.E0,0.E0));
#1594=AXIS2_PLACEMENT_3D('',#1591,#1592,#1593);
#1595=PLANE('',#1594);
#1596=ORIENTED_EDGE('',*,*,#941,.F.);
#1598=ORIENTED_EDGE('',*,*,#1597,.T.);
#1600=ORIENTED_EDGE('',*,*,#1599,.F.);
#1601=ORIENTED_EDGE('',*,*,#1582,.F.);
#1602=EDGE_LOOP('',(#1596,#1598,#1600,#1601));
#1603=FACE_OUTER_BOUND('',#1602,.F.);
#1604=ADVANCED_FACE('',(#1603),#1595,.F.);
#1605=CARTESIAN_POINT('',(3.47E0,-5.05E-1,0.E0));
#1606=DIRECTION('',(1.E0,0.E0,0.E0));
#1607=DIRECTION('',(0.E0,1.E0,0.E0));
#1608=AXIS2_PLACEMENT_3D('',#1605,#1606,#1607);
#1609=PLANE('',#1608);
#1610=ORIENTED_EDGE('',*,*,#939,.F.);
#1612=ORIENTED_EDGE('',*,*,#1611,.T.);
#1614=ORIENTED_EDGE('',*,*,#1613,.F.);
#1615=ORIENTED_EDGE('',*,*,#1597,.F.);
#1616=EDGE_LOOP('',(#1610,#1612,#1614,#1615));
#1617=FACE_OUTER_BOUND('',#1616,.F.);
#1618=ADVANCED_FACE('',(#1617),#1609,.F.);
#1619=CARTESIAN_POINT('',(3.17E0,-5.05E-1,0.E0));
#1620=DIRECTION('',(0.E0,0.E0,1.E0));
#1621=DIRECTION('',(1.E0,0.E0,0.E0));
#1622=AXIS2_PLACEMENT_3D('',#1619,#1620,#1621);
#1623=CYLINDRICAL_SURFACE('',#1622,3.E-1);
#1624=ORIENTED_EDGE('',*,*,#937,.F.);
#1626=ORIENTED_EDGE('',*,*,#1625,.T.);
#1628=ORIENTED_EDGE('',*,*,#1627,.F.);
#1629=ORIENTED_EDGE('',*,*,#1611,.F.);
#1630=EDGE_LOOP('',(#1624,#1626,#1628,#1629));
#1631=FACE_OUTER_BOUND('',#1630,.F.);
#1632=ADVANCED_FACE('',(#1631),#1623,.F.);
#1633=CARTESIAN_POINT('',(1.91E0,-8.05E-1,0.E0));
#1634=DIRECTION('',(0.E0,-1.E0,0.E0));
#1635=DIRECTION('',(1.E0,0.E0,0.E0));
#1636=AXIS2_PLACEMENT_3D('',#1633,#1634,#1635);
#1637=PLANE('',#1636);
#1638=ORIENTED_EDGE('',*,*,#935,.F.);
#1640=ORIENTED_EDGE('',*,*,#1639,.T.);
#1642=ORIENTED_EDGE('',*,*,#1641,.F.);
#1643=ORIENTED_EDGE('',*,*,#1625,.F.);
#1644=EDGE_LOOP('',(#1638,#1640,#1642,#1643));
#1645=FACE_OUTER_BOUND('',#1644,.F.);
#1646=ADVANCED_FACE('',(#1645),#1637,.F.);
#1647=CARTESIAN_POINT('',(1.91E0,-5.05E-1,0.E0));
#1648=DIRECTION('',(0.E0,0.E0,1.E0));
#1649=DIRECTION('',(1.E0,0.E0,0.E0));
#1650=AXIS2_PLACEMENT_3D('',#1647,#1648,#1649);
#1651=CYLINDRICAL_SURFACE('',#1650,3.E-1);
#1652=ORIENTED_EDGE('',*,*,#933,.F.);
#1653=ORIENTED_EDGE('',*,*,#1586,.T.);
#1655=ORIENTED_EDGE('',*,*,#1654,.F.);
#1656=ORIENTED_EDGE('',*,*,#1639,.F.);
#1657=EDGE_LOOP('',(#1652,#1653,#1655,#1656));
#1658=FACE_OUTER_BOUND('',#1657,.F.);
#1659=ADVANCED_FACE('',(#1658),#1651,.F.);
#1660=CARTESIAN_POINT('',(0.E0,0.E0,-1.E0));
#1661=DIRECTION('',(0.E0,0.E0,1.E0));
#1662=DIRECTION('',(1.E0,0.E0,0.E0));
#1663=AXIS2_PLACEMENT_3D('',#1660,#1661,#1662);
#1664=PLANE('',#1663);
#1665=ORIENTED_EDGE('',*,*,#1584,.T.);
#1666=ORIENTED_EDGE('',*,*,#1599,.T.);
#1667=ORIENTED_EDGE('',*,*,#1613,.T.);
#1668=ORIENTED_EDGE('',*,*,#1627,.T.);
#1669=ORIENTED_EDGE('',*,*,#1641,.T.);
#1670=ORIENTED_EDGE('',*,*,#1654,.T.);
#1671=EDGE_LOOP('',(#1665,#1666,#1667,#1668,#1669,#1670));
#1672=FACE_OUTER_BOUND('',#1671,.F.);
#1673=ADVANCED_FACE('',(#1672),#1664,.T.);
#1674=CARTESIAN_POINT('',(-3.47E0,6.05E-1,0.E0));
#1675=DIRECTION('',(-1.E0,0.E0,0.E0));
#1676=DIRECTION('',(0.E0,-1.E0,0.E0));
#1677=AXIS2_PLACEMENT_3D('',#1674,#1675,#1676);
#1678=PLANE('',#1677);
#1679=ORIENTED_EDGE('',*,*,#945,.F.);
#1681=ORIENTED_EDGE('',*,*,#1680,.T.);
#1683=ORIENTED_EDGE('',*,*,#1682,.T.);
#1685=ORIENTED_EDGE('',*,*,#1684,.F.);
#1686=EDGE_LOOP('',(#1679,#1681,#1683,#1685));
#1687=FACE_OUTER_BOUND('',#1686,.F.);
#1688=ADVANCED_FACE('',(#1687),#1678,.F.);
#1689=CARTESIAN_POINT('',(-1.61E0,6.05E-1,0.E0));
#1690=DIRECTION('',(0.E0,1.E0,0.E0));
#1691=DIRECTION('',(-1.E0,0.E0,0.E0));
#1692=AXIS2_PLACEMENT_3D('',#1689,#1690,#1691);
#1693=PLANE('',#1692);
#1694=ORIENTED_EDGE('',*,*,#955,.F.);
#1696=ORIENTED_EDGE('',*,*,#1695,.T.);
#1698=ORIENTED_EDGE('',*,*,#1697,.T.);
#1699=ORIENTED_EDGE('',*,*,#1680,.F.);
#1700=EDGE_LOOP('',(#1694,#1696,#1698,#1699));
#1701=FACE_OUTER_BOUND('',#1700,.F.);
#1702=ADVANCED_FACE('',(#1701),#1693,.F.);
#1703=CARTESIAN_POINT('',(-1.61E0,-5.05E-1,0.E0));
#1704=DIRECTION('',(1.E0,0.E0,0.E0));
#1705=DIRECTION('',(0.E0,1.E0,0.E0));
#1706=AXIS2_PLACEMENT_3D('',#1703,#1704,#1705);
#1707=PLANE('',#1706);
#1708=ORIENTED_EDGE('',*,*,#953,.F.);
#1710=ORIENTED_EDGE('',*,*,#1709,.T.);
#1712=ORIENTED_EDGE('',*,*,#1711,.T.);
#1713=ORIENTED_EDGE('',*,*,#1695,.F.);
#1714=EDGE_LOOP('',(#1708,#1710,#1712,#1713));
#1715=FACE_OUTER_BOUND('',#1714,.F.);
#1716=ADVANCED_FACE('',(#1715),#1707,.F.);
#1717=CARTESIAN_POINT('',(-1.91E0,-5.05E-1,0.E0));
#1718=DIRECTION('',(0.E0,0.E0,1.E0));
#1719=DIRECTION('',(1.E0,0.E0,0.E0));
#1720=AXIS2_PLACEMENT_3D('',#1717,#1718,#1719);
#1721=CYLINDRICAL_SURFACE('',#1720,3.E-1);
#1722=ORIENTED_EDGE('',*,*,#951,.F.);
#1724=ORIENTED_EDGE('',*,*,#1723,.T.);
#1726=ORIENTED_EDGE('',*,*,#1725,.T.);
#1727=ORIENTED_EDGE('',*,*,#1709,.F.);
#1728=EDGE_LOOP('',(#1722,#1724,#1726,#1727));
#1729=FACE_OUTER_BOUND('',#1728,.F.);
#1730=ADVANCED_FACE('',(#1729),#1721,.F.);
#1731=CARTESIAN_POINT('',(-3.17E0,-8.05E-1,0.E0));
#1732=DIRECTION('',(0.E0,-1.E0,0.E0));
#1733=DIRECTION('',(1.E0,0.E0,0.E0));
#1734=AXIS2_PLACEMENT_3D('',#1731,#1732,#1733);
#1735=PLANE('',#1734);
#1736=ORIENTED_EDGE('',*,*,#949,.F.);
#1738=ORIENTED_EDGE('',*,*,#1737,.T.);
#1740=ORIENTED_EDGE('',*,*,#1739,.T.);
#1741=ORIENTED_EDGE('',*,*,#1723,.F.);
#1742=EDGE_LOOP('',(#1736,#1738,#1740,#1741));
#1743=FACE_OUTER_BOUND('',#1742,.F.);
#1744=ADVANCED_FACE('',(#1743),#1735,.F.);
#1745=CARTESIAN_POINT('',(-3.17E0,-5.05E-1,0.E0));
#1746=DIRECTION('',(0.E0,0.E0,1.E0));
#1747=DIRECTION('',(1.E0,0.E0,0.E0));
#1748=AXIS2_PLACEMENT_3D('',#1745,#1746,#1747);
#1749=CYLINDRICAL_SURFACE('',#1748,3.E-1);
#1750=ORIENTED_EDGE('',*,*,#947,.F.);
#1751=ORIENTED_EDGE('',*,*,#1684,.T.);
#1753=ORIENTED_EDGE('',*,*,#1752,.T.);
#1754=ORIENTED_EDGE('',*,*,#1737,.F.);
#1755=EDGE_LOOP('',(#1750,#1751,#1753,#1754));
#1756=FACE_OUTER_BOUND('',#1755,.F.);
#1757=ADVANCED_FACE('',(#1756),#1749,.F.);
#1758=CARTESIAN_POINT('',(-5.08E0,0.E0,-1.E0));
#1759=DIRECTION('',(0.E0,0.E0,1.E0));
#1760=DIRECTION('',(1.E0,0.E0,0.E0));
#1761=AXIS2_PLACEMENT_3D('',#1758,#1759,#1760);
#1762=PLANE('',#1761);
#1763=ORIENTED_EDGE('',*,*,#1682,.F.);
#1764=ORIENTED_EDGE('',*,*,#1697,.F.);
#1765=ORIENTED_EDGE('',*,*,#1711,.F.);
#1766=ORIENTED_EDGE('',*,*,#1725,.F.);
#1767=ORIENTED_EDGE('',*,*,#1739,.F.);
#1768=ORIENTED_EDGE('',*,*,#1752,.F.);
#1769=EDGE_LOOP('',(#1763,#1764,#1765,#1766,#1767,#1768));
#1770=FACE_OUTER_BOUND('',#1769,.F.);
#1771=ADVANCED_FACE('',(#1770),#1762,.T.);
#1772=CARTESIAN_POINT('',(-6.3E-1,5.05E-1,0.E0));
#1773=DIRECTION('',(0.E0,0.E0,1.E0));
#1774=DIRECTION('',(1.E0,0.E0,0.E0));
#1775=AXIS2_PLACEMENT_3D('',#1772,#1773,#1774);
#1776=CYLINDRICAL_SURFACE('',#1775,3.E-1);
#1777=ORIENTED_EDGE('',*,*,#959,.F.);
#1779=ORIENTED_EDGE('',*,*,#1778,.T.);
#1781=ORIENTED_EDGE('',*,*,#1780,.T.);
#1783=ORIENTED_EDGE('',*,*,#1782,.F.);
#1784=EDGE_LOOP('',(#1777,#1779,#1781,#1783));
#1785=FACE_OUTER_BOUND('',#1784,.F.);
#1786=ADVANCED_FACE('',(#1785),#1776,.F.);
#1787=CARTESIAN_POINT('',(6.3E-1,8.05E-1,0.E0));
#1788=DIRECTION('',(0.E0,1.E0,0.E0));
#1789=DIRECTION('',(-1.E0,0.E0,0.E0));
#1790=AXIS2_PLACEMENT_3D('',#1787,#1788,#1789);
#1791=PLANE('',#1790);
#1792=ORIENTED_EDGE('',*,*,#969,.F.);
#1794=ORIENTED_EDGE('',*,*,#1793,.T.);
#1796=ORIENTED_EDGE('',*,*,#1795,.T.);
#1797=ORIENTED_EDGE('',*,*,#1778,.F.);
#1798=EDGE_LOOP('',(#1792,#1794,#1796,#1797));
#1799=FACE_OUTER_BOUND('',#1798,.F.);
#1800=ADVANCED_FACE('',(#1799),#1791,.F.);
#1801=CARTESIAN_POINT('',(6.3E-1,5.05E-1,0.E0));
#1802=DIRECTION('',(0.E0,0.E0,1.E0));
#1803=DIRECTION('',(1.E0,0.E0,0.E0));
#1804=AXIS2_PLACEMENT_3D('',#1801,#1802,#1803);
#1805=CYLINDRICAL_SURFACE('',#1804,3.E-1);
#1806=ORIENTED_EDGE('',*,*,#967,.F.);
#1808=ORIENTED_EDGE('',*,*,#1807,.T.);
#1810=ORIENTED_EDGE('',*,*,#1809,.T.);
#1811=ORIENTED_EDGE('',*,*,#1793,.F.);
#1812=EDGE_LOOP('',(#1806,#1808,#1810,#1811));
#1813=FACE_OUTER_BOUND('',#1812,.F.);
#1814=ADVANCED_FACE('',(#1813),#1805,.F.);
#1815=CARTESIAN_POINT('',(9.3E-1,-6.05E-1,0.E0));
#1816=DIRECTION('',(1.E0,0.E0,0.E0));
#1817=DIRECTION('',(0.E0,1.E0,0.E0));
#1818=AXIS2_PLACEMENT_3D('',#1815,#1816,#1817);
#1819=PLANE('',#1818);
#1820=ORIENTED_EDGE('',*,*,#965,.F.);
#1822=ORIENTED_EDGE('',*,*,#1821,.T.);
#1824=ORIENTED_EDGE('',*,*,#1823,.T.);
#1825=ORIENTED_EDGE('',*,*,#1807,.F.);
#1826=EDGE_LOOP('',(#1820,#1822,#1824,#1825));
#1827=FACE_OUTER_BOUND('',#1826,.F.);
#1828=ADVANCED_FACE('',(#1827),#1819,.F.);
#1829=CARTESIAN_POINT('',(-9.3E-1,-6.05E-1,0.E0));
#1830=DIRECTION('',(0.E0,-1.E0,0.E0));
#1831=DIRECTION('',(1.E0,0.E0,0.E0));
#1832=AXIS2_PLACEMENT_3D('',#1829,#1830,#1831);
#1833=PLANE('',#1832);
#1834=ORIENTED_EDGE('',*,*,#963,.F.);
#1836=ORIENTED_EDGE('',*,*,#1835,.T.);
#1838=ORIENTED_EDGE('',*,*,#1837,.T.);
#1839=ORIENTED_EDGE('',*,*,#1821,.F.);
#1840=EDGE_LOOP('',(#1834,#1836,#1838,#1839));
#1841=FACE_OUTER_BOUND('',#1840,.F.);
#1842=ADVANCED_FACE('',(#1841),#1833,.F.);
#1843=CARTESIAN_POINT('',(-9.3E-1,5.05E-1,0.E0));
#1844=DIRECTION('',(-1.E0,0.E0,0.E0));
#1845=DIRECTION('',(0.E0,-1.E0,0.E0));
#1846=AXIS2_PLACEMENT_3D('',#1843,#1844,#1845);
#1847=PLANE('',#1846);
#1848=ORIENTED_EDGE('',*,*,#961,.F.);
#1849=ORIENTED_EDGE('',*,*,#1782,.T.);
#1851=ORIENTED_EDGE('',*,*,#1850,.T.);
#1852=ORIENTED_EDGE('',*,*,#1835,.F.);
#1853=EDGE_LOOP('',(#1848,#1849,#1851,#1852));
#1854=FACE_OUTER_BOUND('',#1853,.F.);
#1855=ADVANCED_FACE('',(#1854),#1847,.F.);
#1856=CARTESIAN_POINT('',(0.E0,0.E0,-1.E0));
#1857=DIRECTION('',(0.E0,0.E0,1.E0));
#1858=DIRECTION('',(1.E0,0.E0,0.E0));
#1859=AXIS2_PLACEMENT_3D('',#1856,#1857,#1858);
#1860=PLANE('',#1859);
#1861=ORIENTED_EDGE('',*,*,#1780,.F.);
#1862=ORIENTED_EDGE('',*,*,#1795,.F.);
#1863=ORIENTED_EDGE('',*,*,#1809,.F.);
#1864=ORIENTED_EDGE('',*,*,#1823,.F.);
#1865=ORIENTED_EDGE('',*,*,#1837,.F.);
#1866=ORIENTED_EDGE('',*,*,#1850,.F.);
#1867=EDGE_LOOP('',(#1861,#1862,#1863,#1864,#1865,#1866));
#1868=FACE_OUTER_BOUND('',#1867,.F.);
#1869=ADVANCED_FACE('',(#1868),#1860,.T.);
#1870=CLOSED_SHELL('',(#973,#996,#1055,#1074,#1088,#1106,#1119,#1132,#1145,
#1157,#1176,#1190,#1208,#1221,#1234,#1247,#1259,#1278,#1292,#1310,#1323,#1336,
#1349,#1361,#1376,#1391,#1407,#1421,#1441,#1454,#1467,#1479,#1491,#1505,#1519,
#1533,#1547,#1560,#1575,#1590,#1604,#1618,#1632,#1646,#1659,#1673,#1688,#1702,
#1716,#1730,#1744,#1757,#1771,#1786,#1800,#1814,#1828,#1842,#1855,#1869));
#1871=MANIFOLD_SOLID_BREP('',#1870);
#1872=(LENGTH_UNIT()NAMED_UNIT(*)SI_UNIT(.MILLI.,.METRE.));
#1873=DIMENSIONAL_EXPONENTS(0.E0,0.E0,0.E0,0.E0,0.E0,0.E0,0.E0);
#1874=(NAMED_UNIT(*)PLANE_ANGLE_UNIT()SI_UNIT($,.RADIAN.));
#1875=PLANE_ANGLE_MEASURE_WITH_UNIT(PLANE_ANGLE_MEASURE(1.745329251994E-2),
#1874);
#1876=(CONVERSION_BASED_UNIT('DEGREE',#1875)NAMED_UNIT(#1873)PLANE_ANGLE_UNIT(
));
#1877=(NAMED_UNIT(*)SI_UNIT($,.STERADIAN.)SOLID_ANGLE_UNIT());
#1878=UNCERTAINTY_MEASURE_WITH_UNIT(LENGTH_MEASURE(1.290005760771E-3),#1872,
'closure',
'Maximum model space distance between geometric entities at asserted connectivities');
#1879=(GEOMETRIC_REPRESENTATION_CONTEXT(3)GLOBAL_UNCERTAINTY_ASSIGNED_CONTEXT((
#1878))GLOBAL_UNIT_ASSIGNED_CONTEXT((#1872,#1876,#1877))REPRESENTATION_CONTEXT(
'ID1','3'));
#1881=APPLICATION_CONTEXT(
'CONFIGURATION CONTROLLED 3D DESIGNS OF MECHANICAL PARTS AND ASSEMBLIES');
#1882=APPLICATION_PROTOCOL_DEFINITION('international standard',
'ccd_cla_gvp_ast_asd',1995,#1881);
#1883=DESIGN_CONTEXT('',#1881,'design');
#1884=MECHANICAL_CONTEXT('',#1881,'mechanical');
#1885=PRODUCT('C-0215297-03-3','C-0215297-03-3','NOT SPECIFIED',(#1884));
#1886=PRODUCT_DEFINITION_FORMATION_WITH_SPECIFIED_SOURCE('1','LAST_VERSION',
#1885,.MADE.);
#1893=(LENGTH_UNIT()NAMED_UNIT(*)SI_UNIT(.MILLI.,.METRE.));
#1894=DERIVED_UNIT_ELEMENT(#1893,2.E0);
#1895=DERIVED_UNIT((#1894));
#1896=MEASURE_REPRESENTATION_ITEM('surface area measure',AREA_MEASURE(
2.208576505819E2),#1895);
#1900=(LENGTH_UNIT()NAMED_UNIT(*)SI_UNIT(.MILLI.,.METRE.));
#1901=DERIVED_UNIT_ELEMENT(#1900,3.E0);
#1902=DERIVED_UNIT((#1901));
#1903=MEASURE_REPRESENTATION_ITEM('volume measure',VOLUME_MEASURE(
1.257462576059E2),#1902);
#1907=CARTESIAN_POINT('centre point',(-3.842987951435E-4,2.466018516800E-3,
-3.677831645040E0));
#1912=PRODUCT_CATEGORY('part','');
#1913=PRODUCT_RELATED_PRODUCT_CATEGORY('detail','',(#1885));
#1914=PRODUCT_CATEGORY_RELATIONSHIP('','',#1912,#1913);
#1915=SECURITY_CLASSIFICATION_LEVEL('unclassified');
#1916=SECURITY_CLASSIFICATION('','',#1915);
#1917=CC_DESIGN_SECURITY_CLASSIFICATION(#1916,(#1886));
#1918=APPROVAL_STATUS('approved');
#1919=APPROVAL(#1918,'');
#1920=CC_DESIGN_APPROVAL(#1919,(#1916,#1886,#1887));
#1921=CALENDAR_DATE(107,9,10);
#1922=COORDINATED_UNIVERSAL_TIME_OFFSET(3,0,.BEHIND.);
#1923=LOCAL_TIME(20,41,4.E1,#1922);
#1924=DATE_AND_TIME(#1921,#1923);
#1925=APPROVAL_DATE_TIME(#1924,#1919);
#1926=DATE_TIME_ROLE('creation_date');
#1927=CC_DESIGN_DATE_AND_TIME_ASSIGNMENT(#1924,#1926,(#1887));
#1928=DATE_TIME_ROLE('classification_date');
#1929=CC_DESIGN_DATE_AND_TIME_ASSIGNMENT(#1924,#1928,(#1916));
#1930=PERSON('UNSPECIFIED','UNSPECIFIED',$,$,$,$);
#1931=ORGANIZATION('UNSPECIFIED','UNSPECIFIED','UNSPECIFIED');
#1932=PERSON_AND_ORGANIZATION(#1930,#1931);
#1933=APPROVAL_ROLE('approver');
#1934=APPROVAL_PERSON_ORGANIZATION(#1932,#1919,#1933);
#1935=PERSON_AND_ORGANIZATION_ROLE('creator');
#1936=CC_DESIGN_PERSON_AND_ORGANIZATION_ASSIGNMENT(#1932,#1935,(#1886,#1887));
#1937=PERSON_AND_ORGANIZATION_ROLE('design_supplier');
#1938=CC_DESIGN_PERSON_AND_ORGANIZATION_ASSIGNMENT(#1932,#1937,(#1886));
#1939=PERSON_AND_ORGANIZATION_ROLE('classification_officer');
#1940=CC_DESIGN_PERSON_AND_ORGANIZATION_ASSIGNMENT(#1932,#1939,(#1916));
#1941=PERSON_AND_ORGANIZATION_ROLE('design_owner');
#1942=CC_DESIGN_PERSON_AND_ORGANIZATION_ASSIGNMENT(#1932,#1941,(#1885));
#96=CIRCLE('',#95,3.E-1);
#105=CIRCLE('',#104,3.E-1);
#122=CIRCLE('',#121,3.E-1);
#131=CIRCLE('',#130,3.E-1);
#144=CIRCLE('',#143,3.E-1);
#161=CIRCLE('',#160,3.E-1);
#290=CIRCLE('',#289,2.6E0);
#299=CIRCLE('',#298,2.6E0);
#312=CIRCLE('',#311,2.6E0);
#321=CIRCLE('',#320,2.6E0);
#350=CIRCLE('',#349,2.6E0);
#359=CIRCLE('',#358,2.6E0);
#372=CIRCLE('',#371,2.6E0);
#381=CIRCLE('',#380,2.6E0);
#410=CIRCLE('',#409,2.6E0);
#419=CIRCLE('',#418,2.6E0);
#432=CIRCLE('',#431,2.6E0);
#441=CIRCLE('',#440,2.6E0);
#602=CIRCLE('',#601,3.E-1);
#611=CIRCLE('',#610,3.E-1);
#652=CIRCLE('',#651,3.E-1);
#661=CIRCLE('',#660,3.E-1);
#690=CIRCLE('',#689,3.E-1);
#699=CIRCLE('',#698,3.E-1);
#921=EDGE_CURVE('',#714,#715,#75,.T.);
#923=EDGE_CURVE('',#719,#714,#79,.T.);
#925=EDGE_CURVE('',#717,#719,#83,.T.);
#927=EDGE_CURVE('',#715,#717,#87,.T.);
#931=EDGE_CURVE('',#734,#735,#91,.T.);
#933=EDGE_CURVE('',#735,#737,#96,.T.);
#935=EDGE_CURVE('',#737,#739,#100,.T.);
#937=EDGE_CURVE('',#739,#741,#105,.T.);
#939=EDGE_CURVE('',#741,#743,#109,.T.);
#941=EDGE_CURVE('',#743,#734,#113,.T.);
#945=EDGE_CURVE('',#854,#855,#117,.T.);
#947=EDGE_CURVE('',#855,#857,#122,.T.);
#949=EDGE_CURVE('',#857,#859,#126,.T.);
#951=EDGE_CURVE('',#859,#861,#131,.T.);
#953=EDGE_CURVE('',#861,#863,#135,.T.);
#955=EDGE_CURVE('',#863,#854,#139,.T.);
#959=EDGE_CURVE('',#758,#759,#144,.T.);
#961=EDGE_CURVE('',#759,#761,#148,.T.);
#963=EDGE_CURVE('',#761,#763,#152,.T.);
#965=EDGE_CURVE('',#763,#765,#156,.T.);
#967=EDGE_CURVE('',#765,#767,#161,.T.);
#969=EDGE_CURVE('',#767,#758,#165,.T.);
#979=EDGE_CURVE('',#834,#837,#277,.T.);
#981=EDGE_CURVE('',#834,#826,#169,.T.);
#983=EDGE_CURVE('',#826,#827,#173,.T.);
#985=EDGE_CURVE('',#827,#714,#177,.T.);
#988=EDGE_CURVE('',#715,#830,#181,.T.);
#990=EDGE_CURVE('',#830,#831,#185,.T.);
#992=EDGE_CURVE('',#831,#837,#189,.T.);
#1002=EDGE_CURVE('',#905,#907,#241,.T.);
#1004=EDGE_CURVE('',#907,#909,#245,.T.);
#1006=EDGE_CURVE('',#909,#911,#249,.T.);
#1008=EDGE_CURVE('',#911,#913,#253,.T.);
#1010=EDGE_CURVE('',#913,#915,#257,.T.);
#1012=EDGE_CURVE('',#915,#904,#261,.T.);
#1014=EDGE_CURVE('',#904,#839,#265,.T.);
#1016=EDGE_CURVE('',#839,#835,#269,.T.);
#1018=EDGE_CURVE('',#834,#835,#273,.T.);
#1021=EDGE_CURVE('',#837,#905,#281,.T.);
#1025=EDGE_CURVE('',#786,#787,#193,.T.);
#1027=EDGE_CURVE('',#787,#791,#197,.T.);
#1029=EDGE_CURVE('',#790,#791,#201,.T.);
#1031=EDGE_CURVE('',#786,#790,#205,.T.);
#1035=EDGE_CURVE('',#882,#883,#209,.T.);
#1037=EDGE_CURVE('',#883,#887,#213,.T.);
#1039=EDGE_CURVE('',#886,#887,#217,.T.);
#1041=EDGE_CURVE('',#882,#886,#221,.T.);
#1045=EDGE_CURVE('',#810,#811,#225,.T.);
#1047=EDGE_CURVE('',#811,#815,#229,.T.);
#1049=EDGE_CURVE('',#814,#815,#233,.T.);
#1051=EDGE_CURVE('',#810,#814,#237,.T.);
#1062=EDGE_CURVE('',#786,#770,#285,.T.);
#1064=EDGE_CURVE('',#770,#771,#290,.T.);
#1066=EDGE_CURVE('',#771,#773,#294,.T.);
#1068=EDGE_CURVE('',#773,#775,#299,.T.);
#1070=EDGE_CURVE('',#775,#787,#303,.T.);
#1081=EDGE_CURVE('',#790,#778,#325,.T.);
#1083=EDGE_CURVE('',#770,#778,#341,.T.);
#1095=EDGE_CURVE('',#783,#791,#307,.T.);
#1097=EDGE_CURVE('',#781,#783,#312,.T.);
#1099=EDGE_CURVE('',#779,#781,#316,.T.);
#1101=EDGE_CURVE('',#778,#779,#321,.T.);
#1114=EDGE_CURVE('',#775,#783,#329,.T.);
#1126=EDGE_CURVE('',#773,#781,#333,.T.);
#1139=EDGE_CURVE('',#771,#779,#337,.T.);
#1164=EDGE_CURVE('',#882,#866,#345,.T.);
#1166=EDGE_CURVE('',#866,#867,#350,.T.);
#1168=EDGE_CURVE('',#867,#869,#354,.T.);
#1170=EDGE_CURVE('',#869,#871,#359,.T.);
#1172=EDGE_CURVE('',#871,#883,#363,.T.);
#1183=EDGE_CURVE('',#886,#874,#385,.T.);
#1185=EDGE_CURVE('',#866,#874,#401,.T.);
#1197=EDGE_CURVE('',#879,#887,#367,.T.);
#1199=EDGE_CURVE('',#877,#879,#372,.T.);
#1201=EDGE_CURVE('',#875,#877,#376,.T.);
#1203=EDGE_CURVE('',#874,#875,#381,.T.);
#1216=EDGE_CURVE('',#871,#879,#389,.T.);
#1228=EDGE_CURVE('',#869,#877,#393,.T.);
#1241=EDGE_CURVE('',#867,#875,#397,.T.);
#1266=EDGE_CURVE('',#810,#794,#405,.T.);
#1268=EDGE_CURVE('',#794,#795,#410,.T.);
#1270=EDGE_CURVE('',#795,#797,#414,.T.);
#1272=EDGE_CURVE('',#797,#799,#419,.T.);
#1274=EDGE_CURVE('',#799,#811,#423,.T.);
#1285=EDGE_CURVE('',#814,#802,#445,.T.);
#1287=EDGE_CURVE('',#794,#802,#461,.T.);
#1299=EDGE_CURVE('',#807,#815,#427,.T.);
#1301=EDGE_CURVE('',#805,#807,#432,.T.);
#1303=EDGE_CURVE('',#803,#805,#436,.T.);
#1305=EDGE_CURVE('',#802,#803,#441,.T.);
#1318=EDGE_CURVE('',#799,#807,#449,.T.);
#1330=EDGE_CURVE('',#797,#805,#453,.T.);
#1343=EDGE_CURVE('',#795,#803,#457,.T.);
#1368=EDGE_CURVE('',#905,#891,#465,.T.);
#1370=EDGE_CURVE('',#891,#893,#561,.T.);
#1372=EDGE_CURVE('',#907,#893,#533,.T.);
#1382=EDGE_CURVE('',#904,#905,#473,.T.);
#1384=EDGE_CURVE('',#904,#890,#469,.T.);
#1386=EDGE_CURVE('',#890,#891,#537,.T.);
#1400=EDGE_CURVE('',#823,#831,#477,.T.);
#1402=EDGE_CURVE('',#823,#839,#493,.T.);
#1413=EDGE_CURVE('',#822,#823,#497,.T.);
#1417=EDGE_CURVE('',#822,#830,#481,.T.);
#1427=EDGE_CURVE('',#819,#719,#505,.T.);
#1429=EDGE_CURVE('',#818,#819,#485,.T.);
#1431=EDGE_CURVE('',#835,#818,#489,.T.);
#1436=EDGE_CURVE('',#717,#822,#513,.T.);
#1448=EDGE_CURVE('',#819,#827,#501,.T.);
#1463=EDGE_CURVE('',#818,#826,#509,.T.);
#1498=EDGE_CURVE('',#915,#901,#517,.T.);
#1500=EDGE_CURVE('',#901,#890,#541,.T.);
#1512=EDGE_CURVE('',#913,#899,#521,.T.);
#1514=EDGE_CURVE('',#899,#901,#545,.T.);
#1526=EDGE_CURVE('',#911,#897,#525,.T.);
#1528=EDGE_CURVE('',#897,#899,#549,.T.);
#1540=EDGE_CURVE('',#909,#895,#529,.T.);
#1542=EDGE_CURVE('',#895,#897,#553,.T.);
#1555=EDGE_CURVE('',#893,#895,#557,.T.);
#1582=EDGE_CURVE('',#734,#722,#565,.T.);
#1584=EDGE_CURVE('',#731,#722,#589,.T.);
#1586=EDGE_CURVE('',#735,#731,#585,.T.);
#1597=EDGE_CURVE('',#743,#723,#569,.T.);
#1599=EDGE_CURVE('',#722,#723,#593,.T.);
#1611=EDGE_CURVE('',#741,#725,#573,.T.);
#1613=EDGE_CURVE('',#723,#725,#597,.T.);
#1625=EDGE_CURVE('',#739,#727,#577,.T.);
#1627=EDGE_CURVE('',#725,#727,#602,.T.);
#1639=EDGE_CURVE('',#737,#729,#581,.T.);
#1641=EDGE_CURVE('',#727,#729,#606,.T.);
#1654=EDGE_CURVE('',#729,#731,#611,.T.);
#1680=EDGE_CURVE('',#854,#842,#615,.T.);
#1682=EDGE_CURVE('',#842,#843,#639,.T.);
#1684=EDGE_CURVE('',#855,#843,#635,.T.);
#1695=EDGE_CURVE('',#863,#851,#619,.T.);
#1697=EDGE_CURVE('',#851,#842,#643,.T.);
#1709=EDGE_CURVE('',#861,#849,#623,.T.);
#1711=EDGE_CURVE('',#849,#851,#647,.T.);
#1723=EDGE_CURVE('',#859,#847,#627,.T.);
#1725=EDGE_CURVE('',#847,#849,#652,.T.);
#1737=EDGE_CURVE('',#857,#845,#631,.T.);
#1739=EDGE_CURVE('',#845,#847,#656,.T.);
#1752=EDGE_CURVE('',#843,#845,#661,.T.);
#1778=EDGE_CURVE('',#758,#746,#665,.T.);
#1780=EDGE_CURVE('',#746,#747,#690,.T.);
#1782=EDGE_CURVE('',#759,#747,#685,.T.);
#1793=EDGE_CURVE('',#767,#755,#669,.T.);
#1795=EDGE_CURVE('',#755,#746,#694,.T.);
#1807=EDGE_CURVE('',#765,#753,#673,.T.);
#1809=EDGE_CURVE('',#753,#755,#699,.T.);
#1821=EDGE_CURVE('',#763,#751,#677,.T.);
#1823=EDGE_CURVE('',#751,#753,#703,.T.);
#1835=EDGE_CURVE('',#761,#749,#681,.T.);
#1837=EDGE_CURVE('',#749,#751,#707,.T.);
#1850=EDGE_CURVE('',#747,#749,#711,.T.);
#1880=ADVANCED_BREP_SHAPE_REPRESENTATION('',(#1871),#1879);
#1887=PRODUCT_DEFINITION('design','',#1886,#1883);
#1888=PRODUCT_DEFINITION_SHAPE('','SHAPE FOR C-0215297-03-3.',#1887);
#1889=SHAPE_REPRESENTATION('',(#1871),#1879);
#1890=SHAPE_ASPECT('','solid data associated with C-0215297-03-3',#1888,.F.);
#1891=PROPERTY_DEFINITION('',
'shape for solid data with which properties are associated',#1890);
#1892=SHAPE_DEFINITION_REPRESENTATION(#1891,#1889);
#1897=PROPERTY_DEFINITION('geometric_validation_property',
'area of C-0215297-03-3',#1890);
#1898=REPRESENTATION('surface area',(#1896),#1879);
#1899=PROPERTY_DEFINITION_REPRESENTATION(#1897,#1898);
#1904=PROPERTY_DEFINITION('geometric_validation_property',
'volume of C-0215297-03-3',#1890);
#1905=REPRESENTATION('volume',(#1903),#1879);
#1906=PROPERTY_DEFINITION_REPRESENTATION(#1904,#1905);
#1908=PROPERTY_DEFINITION('geometric_validation_property',
'centroid of C-0215297-03-3',#1890);
#1909=REPRESENTATION('centroid',(#1907),#1879);
#1910=PROPERTY_DEFINITION_REPRESENTATION(#1908,#1909);
#1911=SHAPE_DEFINITION_REPRESENTATION(#1888,#1880);
ENDSEC;
END-ISO-10303-21;
